Division,WeightClassKg,Place,Name,Team,BodyweightKg,Best3SquatKg,Best3BenchKg,Best3DeadliftKg,TotalKg,Equipment,Event,Sex,BirthDate
Boys,51.71,1,Colby Murphey,Ponder,49.4,122.47,74.84,122.47,319.78,Single-ply,SBD,M,
Boys,51.71,2,Jaden Dobyns,Alvord,51.62,111.13,58.97,117.93,288.03,Single-ply,SBD,M,
Boys,51.71,3,Nicky Diaz,Nocona,51.66,102.06,65.77,111.13,278.96,Single-ply,SBD,M,
Boys,51.71,4,Kolby Woodall,Alvord,50.85,63.5,49.9,86.18,199.58,Single-ply,SBD,M,
Boys,55.79,1,Colton Covington,Bowie,55.38,133.81,92.99,151.95,378.75,Single-ply,SBD,M,
Boys,55.79,2,Wyatt Steinberger,Windthorst,55.79,131.54,86.18,138.35,356.07,Single-ply,SBD,M,
Boys,55.79,3,James Allison,Bowie,54.75,106.59,61.23,115.67,283.5,Single-ply,SBD,M,
Boys,59.87,1,Wyatt Abbott,Alvord,59.28,172.37,95.25,201.85,469.47,Single-ply,SBD,M,
Boys,59.87,2,Cooper Mcshan,Bowie,59.78,170.1,97.52,172.37,439.98,Single-ply,SBD,M,
Boys,59.87,3,Miguel Olivares,Nocona,56.29,149.69,90.72,158.76,399.16,Single-ply,SBD,M,
Boys,59.87,4,Dorian Ellis,Nocona,59.51,142.88,79.38,167.83,390.09,Single-ply,SBD,M,
Boys,59.87,5,Claetyn Moore,Ponder,59.87,154.22,68.04,136.08,358.34,Single-ply,SBD,M,
Boys,59.87,6,Tyler Slimp,Alvord,56.74,102.06,68.04,131.54,301.64,Single-ply,SBD,M,
Boys,59.87,DQ,Leander Lovelace,Alvord,59.6,133.81,72.57,,,Single-ply,SBD,M,
Boys,67.13,1,Tucker Abbott,Alvord,64.46,208.65,111.13,233.6,553.38,Single-ply,SBD,M,
Boys,67.13,2,Arturo Parra,Chico,66.63,188.24,104.33,188.24,480.81,Single-ply,SBD,M,
Boys,67.13,3,Lane Medlock,Boyd,64.95,167.83,92.99,185.97,446.79,Single-ply,SBD,M,
Boys,67.13,4,Wyatt Davis,Boyd,67.04,142.88,83.91,127.01,353.8,Single-ply,SBD,M,
Boys,67.13,DQ,Mason Hodges,Ponder,65.91,,,,,Single-ply,SBD,M,
Boys,74.84,1,Rayce Pennartz,Alvord,74.66,226.8,117.93,215.46,560.19,Single-ply,SBD,M,
Boys,74.84,2,Isaac Vara,Alvord,74.16,170.1,127.01,170.1,467.2,Single-ply,SBD,M,
Boys,74.84,3,Trevor Hopson,Bowie,72.39,179.17,106.59,165.56,451.32,Single-ply,SBD,M,
Boys,74.84,4,Xavier Ochoa,Alvord,69.44,170.1,117.93,158.76,446.79,Single-ply,SBD,M,
Boys,74.84,5,Michael Wetmore,Nocona,72.62,165.56,97.52,165.56,428.64,Single-ply,SBD,M,
Boys,74.84,6,Jaxson Johnston,Bowie,72.85,161.03,97.52,158.76,417.3,Single-ply,SBD,M,
Boys,74.84,7,Kale Jones,Ponder,73.12,147.42,99.79,165.56,412.77,Single-ply,SBD,M,
Boys,74.84,8,Christian Masters,Boyd,72.08,167.83,95.25,147.42,410.5,Single-ply,SBD,M,
Boys,74.84,9,Matthew Longacre,Chico,73.48,133.81,83.91,158.76,376.48,Single-ply,SBD,M,
Boys,74.84,DQ,Carson Garite,Ponder,72.39,,,,,Single-ply,SBD,M,
Boys,82.1,1,Caden Smith,Ponder,82.05,210.92,133.81,233.6,578.33,Single-ply,SBD,M,
Boys,82.1,2,Michael Nelson,Boyd,82.1,217.72,113.4,226.8,557.92,Single-ply,SBD,M,
Boys,82.1,3,Tad Tamplen,Ponder,79.11,226.8,120.2,201.85,548.85,Single-ply,SBD,M,
Boys,82.1,4,Landon Wilson,Nocona,80.88,183.7,140.61,217.72,542.04,Single-ply,SBD,M,
Boys,82.1,5,Christian Aguilar,Boyd,76.52,136.08,83.91,147.42,367.41,Single-ply,SBD,M,
Boys,82.1,DQ,Zane Cassidy,Ponder,79.2,,,,,Single-ply,SBD,M,
Boys,89.81,1,Callan Furgerson,Boyd,87.36,199.58,136.08,210.92,546.58,Single-ply,SBD,M,
Boys,89.81,2,Johnny Arenas,Bowie,86.18,226.8,129.27,185.97,542.04,Single-ply,SBD,M,
Boys,89.81,3,Colby Price,Bowie,88.95,226.8,122.47,181.44,530.7,Single-ply,SBD,M,
Boys,89.81,4,Johnny Stone,Nocona,85.37,204.12,99.79,197.31,501.22,Single-ply,SBD,M,
Boys,89.81,5,Tucker Thompson,Ponder,84.91,185.97,129.27,183.7,498.95,Single-ply,SBD,M,
Boys,89.81,6,Jesse Nelson #2,Boyd,87.45,181.44,122.47,172.37,476.27,Single-ply,SBD,M,
Boys,89.81,DQ,Merrick Harvey,Paradise,82.33,,,,,Single-ply,SBD,M,
Boys,89.81,DQ,Garrett Pearce,Chico,85.87,172.37,117.93,,,Single-ply,SBD,M,
Boys,99.79,1,Jessie Rodriguez,Boyd,95.8,222.26,127.01,195.04,544.31,Single-ply,SBD,M,
Boys,99.79,2,Mikah Winters,Boyd,94.98,190.51,106.59,195.04,492.15,Single-ply,SBD,M,
Boys,99.79,3,Cole Eberhart,Alvord,99.7,170.1,113.4,185.97,469.47,Single-ply,SBD,M,
Boys,99.79,4,Peter Bonenberger,Ponder,92.44,170.1,99.79,154.22,424.11,Single-ply,SBD,M,
Boys,99.79,DQ,Levi Waggoner,Paradise,96.43,204.12,120.2,,,Single-ply,SBD,M,
Boys,109.77,1,Jakson Hofbauer,Bowie,109.63,244.94,142.88,219.99,607.81,Single-ply,SBD,M,
Boys,109.77,2,Hayden Sands,Alvord,109.68,249.48,142.88,190.51,582.87,Single-ply,SBD,M,
Boys,109.77,3,Josh Tucker,Paradise,105.55,238.14,113.4,226.8,578.33,Single-ply,SBD,M,
Boys,109.77,4,James Frye,Alvord,103.06,185.97,97.52,167.83,451.32,Single-ply,SBD,M,
Boys,109.77,DQ,Bryan DeLeon,Ponder,108.18,,,,,Single-ply,SBD,M,
Boys,124.74,1,Bryan Arellano,Bowie,119.61,317.51,181.44,210.92,709.87,Single-ply,SBD,M,
Boys,124.74,2,Gabe Arencibia,Bowie,117.16,226.8,136.08,226.8,589.67,Single-ply,SBD,M,
Boys,124.74,3,William Estel,Boyd,123.74,260.82,138.35,172.37,571.53,Single-ply,SBD,M,
Boys,124.74,DQ,Thomas Carmona,Ponder,115.67,,,,,Single-ply,SBD,M,
Boys,124.74,DQ,Joseph Green,Ponder,113.81,231.33,131.54,,,Single-ply,SBD,M,
Boys,139.71,1,Tyler Davis,Alvord,130.5,158.76,86.18,147.42,392.36,Single-ply,SBD,M,
Boys,139.71,DQ,Jacobi McGregor,Bowie,129.91,,,,,Single-ply,SBD,M,
Boys,139.71,DQ,Ihra Montoya,Ponder,136.71,222.26,120.2,,,Single-ply,SBD,M,
Boys,139.71+,1,Coleton Price,Bowie,141.25,319.78,158.76,238.14,716.68,Single-ply,SBD,M,
Boys,,NS,Chase Compton,Alvord,,,,,,Single-ply,SBD,M,
Boys,,NS,Charles Marks,Ponder,,,,,,Single-ply,SBD,M,
Boys,,NS,Isaac Fulumana,Nocona,,,,,,Single-ply,SBD,M,
Boys,,NS,Alessandro Rico,Nocona,,,,,,Single-ply,SBD,M,
Boys,,NS,Dayson Elliot,Nocona,,,,,,Single-ply,SBD,M,
Boys,,NS,Damian Estrada,Paradise,,,,,,Single-ply,SBD,M,
