OPL Format v1,Submit by email:,issues@openpowerlifting.org

Federation,Date,MeetCountry,MeetState,MeetTown,MeetName
KNKF-SP,2024-03-30,Netherlands,,Nijmegen,SBD Paascup

Place,Name,Sex,BirthDate,BirthYear,Equipment,Division,Country,BodyweightKg,WeightClassKg,Squat1Kg,Squat2Kg,Squat3Kg,Best3SquatKg,Bench1Kg,Bench2Kg,Bench3Kg,Best3BenchKg,Deadlift1Kg,Deadlift2Kg,Deadlift3Kg,Best3DeadliftKg,TotalKg,Event,Instagram
1,Alba Sousa Perez,F,,1998,Raw,Open,Spain,50.94,52,125,130,135,135,57.5,60,62.5,62.5,142.5,145,160,160,357.5,SBD
2,Tessa Schaper,F,,1996,Raw,Open,Netherlands,51.98,52,115,122.5,130,130,57.5,62.5,65,65,125,132.5,140,140,335,SBD,tessajasmijn
3,Maartje Claessen,F,,1999,Raw,Open,Netherlands,50.3,52,112.5,-117.5,117.5,117.5,65,67.5,-70,67.5,135,142.5,-150,142.5,327.5,SBD
4,Jie Yi Wu Chen,F,,1993,Raw,Open,Netherlands,51.29,52,100,105,-110,105,62.5,67.5,70,70,125,-135,-135,125,300,SBD,jennywasabi
5,Jasmine Kosidin,F,,2005,Raw,Open,Netherlands,51.66,52,90,95,-97.5,95,45,47.5,50,50,115,125,-135,125,270,SBD,jjasmine88
6,Marise de Jong,F,,2006,Raw,Open,Netherlands,51.59,52,-75,75,80,80,35,37.5,-40,37.5,92.5,100,105,105,222.5,SBD,marisedejongx
1,Ester Abarquero Diezhandino,F,,1995,Raw,Open,Spain,56.96,57,130,-135,135,135,-75,75,77.5,77.5,150,160,167.5,167.5,380,SBD
2,Jessica Alejandra Cisneros Vasquez,F,,1997,Raw,Open,Spain,56.31,57,117.5,125,130,130,65,70,75,75,140,150,157.5,157.5,362.5,SBD
3,Margriet Ponse,F,,1985,Raw,Open,Netherlands,56.63,57,112.5,120,125,125,67.5,-72.5,72.5,72.5,155,162.5,-167.5,162.5,360,SBD,thepower.of.now
4,Esmee Peeters,F,,1995,Raw,Open,Netherlands,55.36,57,90,95,-100,95,55,-57.5,-57.5,55,120,127.5,-132.5,127.5,277.5,SBD
5,Safia Shaik,F,,2000,Raw,Open,Netherlands,54.72,57,95,102.5,110,110,45,47.5,-52.5,47.5,100,-110,112.5,112.5,270,SBD
6,Alexandra Lugtigheid-Rellum,F,,1980,Raw,Open,Netherlands,52.97,57,-60,60,65,65,32.5,35,-37.5,35,85,92.5,97.5,97.5,197.5,SBD
1,Naroa Etxepare Amundarain,F,,1998,Raw,Open,Spain,62.69,63,142.5,152.5,-160,152.5,77.5,82.5,85,85,162.5,175,180,180,417.5,SBD
2,Mylène Soeterbroek,F,,1997,Raw,Open,Netherlands,62.02,63,152.5,160,-165,160,80,-82.5,-82.5,80,165,-175,175,175,415,SBD,mylofit_
3,Laura Libertad Fernandez Ortiz,F,,1995,Raw,Open,Spain,62.72,63,140,147.5,152.5,152.5,75,-80,-80,75,155,165,172.5,172.5,400,SBD
4,Elise Idora,F,,2006,Raw,Open,Netherlands,62.35,63,145,152.5,-157.5,152.5,82.5,-87.5,-92.5,82.5,145,150,-155,150,385,SBD,elise_bassant
5,Esmée Berendsen,F,,2000,Raw,Open,Netherlands,62.49,63,135,145,147.5,147.5,77.5,80,-82.5,80,147.5,157.5,-160,157.5,385,SBD,esmee.berendsen
6,Carmen Peña Cabezas,F,,2000,Raw,Open,Spain,59.48,63,122.5,130,140,140,75,80,85,85,137.5,147.5,155,155,380,SBD
7,Eva de Langen,F,,1996,Raw,Open,Netherlands,62.23,63,137.5,142.5,-145,142.5,67.5,70,-72.5,70,157.5,,,157.5,370,SBD
8,Larissa Vermaning,F,,1993,Raw,Open,Netherlands,60.60,63,-125,125,-140,125,82.5,-87.5,-87.5,82.5,142.5,152.5,,152.5,360,SBD,larissajo__
9,Natasha Dharma,F,,1997,Raw,Open,Netherlands,59.81,63,135,142.5,-150,142.5,55,57.5,-60,57.5,140,147.5,152.5,152.5,352.5,SBD
10,Amélie Bevers,F,,2005,Raw,Open,Netherlands,61.31,63,100,110,117.5,117.5,67.5,72.5,75,75,135,145,155,155,347.5,SBD
11,Isabelle Tanner,F,,2004,Raw,Open,Netherlands,61.17,63,125,132.5,140,140,57.5,-62.5,-65,57.5,130,137.5,142.5,142.5,340,SBD,izzy.tannerrr
12,Deborah Hartog,F,,1998,Raw,Open,Netherlands,60.58,63,112.5,120,-125,120,60,65,-67.5,65,-130,137.5,145,145,330,SBD,debcontent
13,Hewan Admasu,F,,2003,Raw,Open,Netherlands,61.87,63,100,105,110,110,57.5,62.5,67.5,67.5,130,137.5,150,150,327.5,SBD,hwndms
14,Louise de Jong,F,,1969,Raw,Open,Netherlands,62.09,63,110,117.5,122.5,122.5,62.5,67.5,-70,67.5,125,132.5,137.5,137.5,327.5,SBD
15,Eline Dekkers,F,,1994,Raw,Open,Netherlands,60.87,63,-115,115,120,120,-52.5,52.5,55,55,-130,142.5,150,150,325,SBD
16,Emma Weydert,F,,2004,Raw,Open,Luxembourg,58.35,63,105,112.5,117.5,117.5,57.5,-62.5,-62.5,57.5,130,140,145,145,320,SBD
17,Miriam Beusink,F,,1991,Raw,Open,Netherlands,62.17,63,115,120,122.5,122.5,52.5,55,-57.5,55,130,140,-145,140,317.5,SBD,miriambeusink
18,Romy Sanders,F,,2001,Raw,Open,Netherlands,61.56,63,107.5,-115,-117.5,107.5,65,70,72.5,72.5,115,125,135,135,315,SBD,romysandersx
19,Sena Coskun,F,,2005,Raw,Open,Netherlands,62.46,63,110,117.5,120,120,57.5,-62.5,-62.5,57.5,125,132.5,137.5,137.5,315,SBD,sssennnaa
20,Mariken Fasol,F,,2002,Raw,Open,Netherlands,62.59,63,-110,110,117.5,117.5,55,57.5,60,60,125,137.5,,137.5,315,SBD,mariken.f
21,Sophie Meijer,F,,1998,Raw,Open,Netherlands,60.45,63,97.5,102.5,105,105,50,52.5,55,55,135,145,-152.5,145,305,SBD,s0phieok
22,Jade Westra,F,,1999,Raw,Open,Netherlands,62.46,63,100,105,112.5,112.5,50,52.5,-55,52.5,125,132.5,140,140,305,SBD,jadesbdlifts
23,Rosaline Schless,F,,2008,Raw,Open,Netherlands,60.32,63,100,107.5,115,115,50,55,60,60,120,125,127.5,127.5,302.5,SBD,rosaline.lifts
24,Paulina Breidenbach,F,,2001,Raw,Open,Netherlands,59.48,63,97.5,105,-112.5,105,50,55,-57.5,55,112.5,122.5,132.5,132.5,292.5,SBD,paulinabreidenbach
25,Jade Cheng,F,,2005,Raw,Open,Netherlands,62.27,63,100,105,-110,105,47.5,52.5,55,55,120,132.5,-137.5,132.5,292.5,SBD,panfuplates
26,Margoo Timmermans,F,,1981,Raw,Open,Netherlands,60.33,63,92.5,100,-105,100,55,-57.5,-57.5,55,120,127.5,135,135,290,SBD,margoo.timmermans
27,Marina Alexandreas,F,,2000,Raw,Open,Luxembourg,61.24,63,102.5,-107.5,107.5,107.5,57.5,-62.5,62.5,62.5,112.5,117.5,120,120,290,SBD
28,Chobe Ekas,F,,2001,Raw,Open,Netherlands,60.82,63,90,97.5,105,105,50,55,-60,55,110,117.5,120,120,280,SBD,chobe.fit
29,Lindy De Vries,F,,1992,Raw,Open,Netherlands,61.06,63,90,97.5,-102.5,97.5,50,55,,55,110,117.5,-125,117.5,270,SBD,lindyy.v
30,Vera van Heugten,F,,1999,Raw,Open,Netherlands,61.99,63,70,77.5,82.5,82.5,40,45,-50,45,107.5,112.5,115,115,242.5,SBD,veraavh
31,Yara Horstink,F,,2007,Raw,Open,Netherlands,57.52,63,-60,60,70,70,35,40,-45,40,60,75,85,85,195,SBD
1,Siham El Yaakoubi,F,,1994,Raw,Open,Netherlands,68.14,69,-157.5,-160,160,160,70,-75,-75,70,-170,170,175,175,405,SBD,si_si__xx_xx
2,Katalin Lukacs,F,,2003,Raw,Open,Netherlands,68.98,69,130,140,150,150,85,90,95,95,125,135,145,145,390,SBD,kati.lukacs
3,Nikki van der Welle,F,,1997,Raw,Open,Netherlands,67.44,69,125,130,-135,130,60,65,-70,65,170,180,190,190,385,SBD,nikkivdwelle
4,Cristina Sorribes Fernandez Del Rio,F,,1998,Raw,Open,Spain,64.83,69,137.5,145,-147.5,145,67.5,72.5,77.5,77.5,140,152.5,-167.5,152.5,375,SBD
5,Bașak Özkan,F,,1996,Raw,Open,Netherlands,67.20,69,-132.5,132.5,140,140,57.5,60,-62.5,60,155,165,170,170,370,SBD,basak.zkn
6,Star Sala,F,,2008,Raw,Open,Netherlands,68.03,69,127.5,135,140,140,57.5,60,62.5,62.5,135,152.5,160,160,362.5,SBD,star.salaaa
7,Kaya Honders,F,,2002,Raw,Open,Netherlands,65.19,69,110,117.5,125,125,77.5,82.5,85,85,135,-145,150,150,360,SBD,kaya.honders
8,Samantha Bendeler,F,,1991,Raw,Open,Netherlands,68.01,69,130,137.5,142.5,142.5,55,60,-65,60,140,150,157.5,157.5,360,SBD,sbendeler
9,Annemie Van Lakwijk,F,,2000,Raw,Open,Netherlands,67.99,69,120,127.5,-132.5,127.5,52.5,55,-57.5,55,147.5,155,-160,155,337.5,SBD,ann_vl
10,Kim van der Most,F,,1999,Raw,Open,Netherlands,68.69,69,-130,130,-137.5,130,62.5,67.5,70,70,125,132.5,-135,132.5,332.5,SBD,kimvdmost
11,Lynn Willemsen,F,,2003,Raw,Open,Netherlands,64.76,69,110,117.5,125,125,57.5,62.5,67.5,67.5,120,130,137.5,137.5,330,SBD,lynn.willemsen_
12,Mare Nieuwlands,F,,2000,Raw,Open,Netherlands,67.48,69,115,122.5,125,125,57.5,-60,-60,57.5,125,135,145,145,327.5,SBD,mare.x
13,Cassandra Schoonbrood,F,,2005,Raw,Open,Netherlands,65.70,69,110,115,117.5,117.5,65,70,72.5,72.5,120,130,132.5,132.5,322.5,SBD,c.schoonbrood_
14,Arleen Meyer,F,,1979,Raw,Open,Netherlands,68.76,69,105,110,115,115,65,67.5,-72.5,67.5,132.5,140,-145,140,322.5,SBD
15,Larissa Timmer,F,,1995,Raw,Open,Netherlands,67.94,69,110,115,120,120,55,-60,-60,55,135,142.5,145,145,320,SBD,timmerlarissa
16,Maria Eleni Giannetsou,F,,2001,Raw,Open,Netherlands,67.13,69,-100,100,110,110,55,57.5,60,60,130,140,147.5,147.5,317.5,SBD,marialenagian
17,Joni van Witteloostuijn,F,,2005,Raw,Open,Netherlands,68.82,69,110,117.5,122.5,122.5,55,60,62.5,62.5,117.5,125,130,130,315,SBD,powerlifting_joni
18,Amber Sentener,F,,1998,Raw,Open,Netherlands,68.76,69,102.5,110,-115,110,52.5,55,-57.5,55,130,140,145,145,310,SBD,ambersentener
19,Demi Stumpf,F,,2002,Raw,Open,Netherlands,68.13,69,92.5,100,105,105,47.5,-52.5,-52.5,47.5,120,130,140,140,292.5,SBD,x.deemiis
20,Renske Voet,F,,2006,Raw,Open,Netherlands,66.36,69,90,97.5,102.5,102.5,50,55,57.5,57.5,120,125,130,130,290,SBD,renske_voet
21,Ellowyn Meijer,F,,2003,Raw,Open,Netherlands,66.14,69,80,85,90,90,55,57.5,-60,57.5,125,132.5,-140,132.5,280,SBD
22,Julia Lanser,F,,1978,Raw,Open,Netherlands,66.96,69,92.5,100,-105,100,52.5,55,60,60,105,115,-120,115,275,SBD,julia_lanser
23,Jasmijn van Warmerdam,F,,1997,Raw,Open,Netherlands,68.35,69,100,107.5,-110,107.5,45,47.5,-50,47.5,107.5,-117.5,-117.5,107.5,262.5,SBD,jasmijnlouise
1,Tessa Ophoff,F,,2001,Raw,Open,Netherlands,73.60,76,170,180,185,185,87.5,90,-95,90,182.5,195,202.5,202.5,477.5,SBD,tessaophoff
2,Emma Omani,F,,1998,Raw,Open,Netherlands,74.41,76,-160,170,175,175,95,100,102.5,102.5,180,192.5,200,200,477.5,SBD,emmaomani
3,Jolijn Brandsma,F,,1998,Raw,Open,Netherlands,73.29,76,150,-160,-165,150,60,62.5,65,65,175,187.5,-195,187.5,402.5,SBD,jolijnbrandsma
4,Maartje van Vught,F,,1988,Raw,Open,Netherlands,73.58,76,130,132.5,142.5,142.5,70,75,77.5,77.5,150,160,170,170,390,SBD,maartje_lift_you_up
5,Maaike Brinkhof,F,,1986,Raw,Open,Netherlands,74.05,76,122.5,130,-135,130,75,-77.5,-77.5,75,170,180,185,185,390,SBD,maaikees
6,Martine van Diest,F,,2004,Raw,Open,Netherlands,75,76,122.5,-130,135,135,72.5,77.5,-80,77.5,160,170,-175,170,382.5,SBD,martinevdiest
7,Frederique Ubachs,F,,2003,Raw,Open,Netherlands,74.38,76,112.5,117.5,122.5,122.5,95,100,-102.5,100,127.5,140,155,155,377.5,SBD,fre.ubachsfit
8,Talita Olthuis,F,,1996,Raw,Open,Netherlands,75.12,76,137.5,145,152.5,152.5,65,67.5,70,70,135,-145,150,150,372.5,SBD,talita_lifts
9,Nina Yzer,F,,1998,Raw,Open,Netherlands,72.36,76,125,135,-145,135,70,72.5,75,75,150,160,-170,160,370,SBD,ninayzer
10,Maaike Smits,F,,2000,Raw,Open,Netherlands,74.45,76,115,122.5,130,130,65,-70,70,70,145,155,160,160,360,SBD
11,Elisa Soeten,F,,2004,Raw,Open,Netherlands,71.61,76,115,-122.5,130,130,80,82.5,-90,82.5,125,132.5,137.5,137.5,350,SBD,elisa.soeten
12,Doortje Stolp,F,,1999,Raw,Open,Netherlands,73.11,76,117.5,122.5,127.5,127.5,-62.5,62.5,65,65,145,152.5,157.5,157.5,350,SBD
13,Julia Walst,F,,2001,Raw,Open,Netherlands,75.02,76,127.5,135,-140,135,57.5,60,-62.5,60,140,147.5,155,155,350,SBD
14,Anne-Marije van der Linden,F,,2001,Raw,Open,Netherlands,73.66,76,122.5,130,-132.5,130,60,62.5,65,65,140,147.5,-155,147.5,342.5,SBD
15,Annick Peelen,F,,1995,Raw,Open,Netherlands,74.21,76,132.5,-135,-137.5,132.5,60,-65,-65,60,142.5,-150,150,150,342.5,SBD,annickje_
16,Lisa Verwijs,F,,1995,Raw,Open,Netherlands,75.24,76,-105,105,112.5,112.5,70,75,80,80,130,140,150,150,342.5,SBD,lisa_verwijs
17,Vera Hendriks,F,,2001,Raw,Open,Netherlands,72.18,76,122.5,130,-132.5,130,70,72.5,-75,72.5,125,135,-140,135,337.5,SBD,verahendrikss
18,Dagmar Bierman,F,,2005,Raw,Open,Netherlands,75.22,76,-117.5,-117.5,117.5,117.5,67.5,70.0,-75,70.0,140,147.5,-152.5,147.5,335,SBD,dagmarbierman_
19,Yoica van Loenen,F,,2004,Raw,Open,Netherlands,71.75,76,105,112.5,-120,112.5,67.5,72.5,-77.5,72.5,125,135,140,140,325,SBD,yoica_vl
20,Esmée Kip,F,,1998,Raw,Open,Netherlands,74.20,76,115,122.5,125,125,50,55,-57.5,55,130,137.5,145,145,325,SBD,esmeeromy_
21,Maud Hartig,F,,2001,Raw,Open,Netherlands,74,76,105,115,122.5,122.5,55,57.5,60,60,125,135,140,140,322.5,SBD,maudhartig
22,Hannah de Man,F,,2003,Raw,Open,Netherlands,72.17,76,105,112.5,117.5,117.5,47.5,50,-52.5,50,135,145,152.5,152.5,320,SBD
23,Alina Dyazhur,F,,2001,Raw,Open,Netherlands,73.94,76,95,100,-105,100,50,55,60,60,125,135,142.5,142.5,302.5,SBD
24,Rhea Lambregts,F,,1996,Raw,Open,Netherlands,73.81,76,90,97.5,102.5,102.5,52.5,55,-57.5,55,127.5,135,142.5,142.5,300,SBD
25,Linde Gorissen,F,,2003,Raw,Open,Netherlands,74.03,76,100,105,110,110,50,55,-57.5,55,122.5,130,135,135,300,SBD
26,Michelle Broekhuijsen,F,,2003,Raw,Open,Netherlands,71.45,76,100,107.5,-110,107.5,40,45,-50,45,132.5,140,-142.5,140,292.5,SBD,fitwt1d
27,Floortje van Leeuwen,F,,2005,Raw,Open,Netherlands,74.53,76,85,92.5,100,100,-52.5,57.5,62.5,62.5,100,115,130,130,292.5,SBD
28,Talitha de Gier,F,,2003,Raw,Open,Netherlands,74.38,76,92.5,97.5,-102.5,97.5,47.5,50,52.5,52.5,92.5,100,-107.5,100,250,SBD
29,Irene Baalbergen,F,,1993,Raw,Open,Netherlands,74.67,76,60,70,80,80,40,45,-50,45,100,-107.5,-110,100,225,SBD
DQ,Naomi Jansen,F,,1999,Raw,Open,Netherlands,72.56,76,-115,-115,-115,,65,67.5,70,70,150,-157.5,-157.5,150,,SBD,naomiii_scholl
1,Lisa Zuiderduin,F,,2000,Raw,Open,Netherlands,83.01,84,150,160,165,165,72.5,75,-77.5,75,185,200,-210,200,440,SBD,lisazuiderduin
2,Michelle de Jong #1,F,,1998,Raw,Open,Netherlands,79.58,84,140,145,150,150,85,-87.5,-87.5,85,160,170,-170,170,405,SBD,coco_michellex
3,Mette Heuvelink,F,,2001,Raw,Open,Netherlands,79.77,84,140,147.5,152.5,152.5,60,65,-67.5,65,160,170,175,175,392.5,SBD,metteheuvelink
4,Marleen de Bondt,F,,2001,Raw,Open,Netherlands,83.42,84,130,-137.5,-137.5,130,72.5,77.5,85,85,157.5,165,175,175,390,SBD,marleendebondt
5,Sam Brasser,F,,2000,Raw,Open,Netherlands,80.69,84,130,137.5,-142.5,137.5,67.5,72.5,75,75,152.5,162.5,170,170,382.5,SBD,sambrasser__
6,Elyna Weber,F,,1997,Raw,Open,Luxembourg,82.37,84,130,140,-147.5,140,80,85,-85,85,145,155,-162.5,155,380,SBD
7,Anne-Ruth Ebbers,F,,2001,Raw,Open,Netherlands,78.52,84,-120,120,-130,120,72.5,77.5,80,80,145,155,162.5,162.5,362.5,SBD
8,Maria Stigter,F,,2003,Raw,Open,Netherlands,80.34,84,120,125,-130,125,62.5,-67.5,67.5,67.5,150,157.5,162.5,162.5,355,SBD
9,Julia Botter,F,,2002,Raw,Open,Netherlands,81.12,84,112.5,122.5,-127.5,122.5,57.5,62.5,67.5,67.5,132.5,150,165,165,355,SBD,juulgrows
10,Fé Hofstra,F,,2003,Raw,Open,Netherlands,83.8,84,115,122.5,125,125,65,67.5,-70,67.5,137.5,145,150,150,342.5,SBD,fehofstra
11,Wytske Zevenboom,F,,1999,Raw,Open,Netherlands,83.4,84,127.5,-132.5,-132.5,127.5,57.5,60,-62.5,60,135,142.5,150,150,337.5,SBD,wyts777
12,Phine van Hattum,F,,1996,Raw,Open,Netherlands,81.67,84,100,107.5,-110,107.5,60,62.5,65,65,135,145,152.5,152.5,325,SBD
13,Selin Sarikaya,F,,2000,Raw,Open,Netherlands,82.49,84,115,120,-122.5,120,60,-62.5,-62.5,60,130,137.5,145,145,325,SBD,ssel.17
14,Ise Kleuskens,F,,2006,Raw,Open,Netherlands,82.45,84,115,122.5,130,130,50,55,60,60,110,120,130,130,320,SBD,isekleuskens
15,Mayke Koopmans,F,,1999,Raw,Open,Netherlands,83.32,84,110,115,120,120,42.5,47.5,-52.5,47.5,125,132.5,140,140,307.5,SBD
1,Britt Krijger,F,,2000,Raw,Open,Netherlands,86.66,84+,147.5,155,160,160,72.5,77.5,80,80,145,155,165,165,405,SBD,brittkrijger_
2,Hanna de Jonge,F,,2001,Raw,Open,Netherlands,97.95,84+,130,137.5,-140,137.5,50,52.5,-55,52.5,160,170,180,180,370,SBD,hannadejonge
3,Nadjia Bennaoui,F,,1994,Raw,Open,Luxembourg,88.72,84+,130,135,142.5,142.5,65,70,-75,70,130,-142.5,142.5,142.5,355,SBD
4,Tanja Mundt,F,,1972,Raw,Open,Netherlands,91.85,84+,120,-122.5,-125,120,55,60,-65,60,140,150,160,160,340,SBD
5,Danielle Heijne,F,,1992,Raw,Open,Netherlands,92.58,84+,120,127.5,132.5,132.5,55,57.5,-60,57.5,135,142.5,-150,142.5,332.5,SBD,danielle.frederique
6,Laura Maatje,F,,1991,Raw,Open,Netherlands,107.92,84+,-130,130,-137.5,130,-60,62.5,65,65,120,127.5,-132.5,127.5,322.5,SBD,gwoon_laura
7,Elle Bouman,F,,1998,Raw,Open,Netherlands,103.99,84+,-110,-110,110,110,55,57.5,60,60,115,127.5,-135,127.5,297.5,SBD,ellebouman
1,Sabir Bouarmi,M,,1998,Raw,Open,Netherlands,58.90,59,-110,110,120,120,90,-100,-100,90,170,200,215,215,425,SBD,sabirb_13
2,Geert Jan Nijborg,M,,2007,Raw,Open,Netherlands,57.05,59,105,112.5,120,120,65,70,72.5,72.5,127.5,135,140,140,332.5,SBD,geertjannijborg
1,Lorenzo Haarloo,M,,1987,Raw,Open,Netherlands,65.79,66,170,177.5,182.5,182.5,122.5,127.5,132.5,132.5,237.5,250,252.5,252.5,567.5,SBD,lorenzohaarloo
2,Fei Fan Hu,M,,1998,Raw,Open,Netherlands,65.20,66,-182.5,192.5,200,200,110,117.5,-122.5,117.5,225,240,-250,240,557.5,SBD,__ffh_98
3,Bart Pieters,M,,1997,Raw,Open,Netherlands,65.61,66,167.5,177.5,182.5,182.5,117.5,125,,125,200,-222.5,-222.5,200,507.5,SBD
4,Stephan Munneke,M,,2000,Raw,Open,Netherlands,65.86,66,177.5,-182.5,-182.5,177.5,107.5,112.5,-115,112.5,210,-217.5,-220,210,500,SBD
5,Niklas Kan Van Idsinga,M,,1997,Raw,Open,Netherlands,66.00,66,155,165,172.5,172.5,117.5,122.5,125,125,170,182.5,190,190,487.5,SBD,niklaskanvanidsinga
6,Jens Verheij,M,,2002,Raw,Open,Netherlands,65.03,66,140,155,160,160,100,107.5,-112.5,107.5,165,180,185,185,452.5,SBD
7,Melvin Sinaij,M,,1996,Raw,Open,Netherlands,64.42,66,-135,135,145,145,92.5,100,-107.5,100,185,195,200,200,445,SBD,melvin.sinaij
8,Desmond Leung,M,,2003,Raw,Open,Netherlands,64.87,66,147.5,157.5,-162.5,157.5,92.5,97.5,102.5,102.5,-175,175,-185,175,435,SBD
9,Siem van de Werken,M,,2004,Raw,Open,Netherlands,63.56,66,135,145,152.5,152.5,70,77.5,-82.5,77.5,-185,195,200,200,430,SBD,siem_van_de_werken
10,Mick Cavalje,M,,2002,Raw,Open,Netherlands,63.61,66,140,145,-150,145,80,85,-87.5,85,177.5,195,,195,425,SBD,mick.cavalje
11,Luca Simonetti,M,,2001,Raw,Open,Netherlands,65.50,66,112.5,120,125,125,82.5,87.5,92.5,92.5,167.5,177.5,185,185,402.5,SBD,knurkie_lifts
12,Tim Buiks,M,,2009,Raw,Open,Netherlands,63.65,66,95,105,-115,105,-57.5,57.5,-65,57.5,135,150,-160,150,312.5,SBD,tijgerlifts
DQ,Tom Kuurstra,M,,2000,Raw,Open,Netherlands,61.82,66,125,-132.5,-132.5,125,-90,-95,-100,,160,172.5,-180,172.5,,SBD
1,Geronimo Niklas,M,,1999,Raw,Open,Netherlands,74.0,74,210,217.5,222.5,222.5,160,-165,165,165,240,252.5,262.5,262.5,650,SBD,geroniiii
2,Stan Brabander,M,,1999,Raw,Open,Netherlands,71.6,74,195,207.5,-215,207.5,142.5,147.5,-152.5,147.5,210,235,-237.5,235,590,SBD
3,Leonardo Cruz,M,,1992,Raw,Open,Netherlands,71.8,74,-170,180,-182.5,180,115,122.5,-127.5,122.5,230,-245,245,245,547.5,SBD
4,Marcin Poplawski,M,,2002,Raw,Open,Netherlands,72.1,74,170,-185,190,190,115,122.5,-130,122.5,200,215,222.5,222.5,535,SBD
5,Indy Verhulsdonck,M,,2000,Raw,Open,Netherlands,72.3,74,-175,185,192.5,192.5,110,117.5,-125,117.5,205,215,225,225,535,SBD,indyverhulsdonck
6,Tomas Santana,M,,2006,Raw,Open,Luxembourg,73.1,74,177.5,187.5,192.5,192.5,115,122.5,127.5,127.5,197.5,-210,-215,197.5,517.5,SBD
7,Maximilian Gussen,M,,2004,Raw,Open,Netherlands,73.1,74,150,160,167.5,167.5,90,95,100,100,230,240,250,250,517.5,SBD,maxgymtniet
8,Kevin Avdic,M,,2002,Raw,Open,Netherlands,72.0,74,180,192.5,200,200,-85,92.5,97.5,97.5,192.5,207.5,215,215,512.5,SBD,kevin._0111
9,Brian de Jong,M,,1995,Raw,Open,Netherlands,73.0,74,165,175,185,185,-117.5,120,127.5,127.5,170,185,200,200,512.5,SBD,briansquats
10,Fynn Fawzi,M,,2004,Raw,Open,Netherlands,72.6,74,170,180,187.5,187.5,90,97.5,-100,97.5,205,212.5,220,220,505,SBD,fawzifynn
11,Nout Mulder,M,,2003,Raw,Open,Netherlands,72.9,74,165,175,180,180,95,102.5,105,105,190,205,215,215,500,SBD,no.ut
12,Jari van der Heijden,M,,2002,Raw,Open,Netherlands,73.5,74,170,180,-182.5,180,100,-105,105,105,190,205,210,210,495,SBD,jarivdheijden
13,Kelvin Mahadew,M,,2002,Raw,Open,Netherlands,70.5,74,155,162.5,170,170,102.5,110,115,115,195,205,,205,490,SBD,kelvin.__m
14,Tijn Butzelaar,M,,2002,Raw,Open,Netherlands,73.5,74,-190,190,-192.5,190,100,,,100,200,-202.5,-202.5,200,490,SBD,tijn.butzelaar
15,Jori de Leuw,M,,1999,Raw,Open,Netherlands,72.5,74,160,167.5,-175,167.5,110,117.5,-122.5,117.5,182.5,192.5,200,200,485,SBD,jorideleuw
16,Ethan Scheepers,M,,2005,Raw,Open,Luxembourg,73.0,74,150,160,167.5,167.5,95,102.5,105,105,180,195,210,210,482.5,SBD
17,Sam van Dijk,M,,2005,Raw,Open,Netherlands,73.0,74,157.5,162.5,-165,162.5,95,-100,100,100,205,-217.5,220,220,482.5,SBD,samski74kg
18,Senna Kaaij,M,,2005,Raw,Open,Netherlands,73.3,74,150,160,-162.5,160,100,-105,105,105,-200,-205,205,205,470,SBD
19,Lukas Kraaij,M,,2004,Raw,Open,Netherlands,70.5,74,-155,155,160,160,100,-105,-105,100,192.5,200,205,205,465,SBD,lukaskraaij_
20,Thijm van Munster,M,,2005,Raw,Open,Netherlands,70.4,74,145,152.5,160,160,90,95,100,100,180,190,200,200,460,SBD,thijm.v.munster
21,Jeremy Severino,M,,2004,Raw,Open,Netherlands,72.7,74,155,-162.5,167.5,167.5,92.5,97.5,-102.5,97.5,175,182.5,190,190,455,SBD,gsv.jerra
22,Vincent Riemslag,M,,2002,Raw,Open,Netherlands,66.10,74,140,-150,155,155,85,95,-100,95,190,202.5,-207.5,202.5,452.5,SBD,vincentt_r
23,Jonathan Cardona Ceballos,M,,2002,Raw,Open,Netherlands,71.5,74,150,162.5,170,170,95,102.5,-107.5,102.5,150,167.5,177.5,177.5,450,SBD,j_ccb20
24,Jorge Horan,M,,1998,Raw,Open,Netherlands,73.5,74,155,160,-165,160,-97.5,97.5,102.5,102.5,175,-185,185,185,447.5,SBD
25,Daniel Szabo,M,,2005,Raw,Open,Netherlands,67.5,74,132.5,147.5,152.5,152.5,75,82.5,90,90,165,175,185,185,427.5,SBD
26,Damirel Zuhan,M,,2007,Raw,Open,Netherlands,72.8,74,130,137.5,-147.5,137.5,90,97.5,102.5,102.5,165,175,-185,175,415,SBD,damir4lk
27,Peter Pabor,M,,1997,Raw,Open,Netherlands,72.8,74,130,137.5,140,140,75,80,-82.5,80,162.5,-180,180,180,400,SBD,peter_pabor
28,Bram Verhagen,M,,2005,Raw,Open,Netherlands,70.0,74,115,125,135,135,72.5,-77.5,-80,72.5,167.5,175,180,180,387.5,SBD
29,Mick Cazemier,M,,2003,Raw,Open,Netherlands,71.4,74,110,112.5,125,125,85,90,-97.5,90,145,155,162.5,162.5,377.5,SBD
30,Matthieu van Witteloostuijn,M,,1994,Raw,Open,Netherlands,72,74,110,112.5,120,120,77.5,82.5,-85,82.5,150,155,160,160,362.5,SBD
31,Senne van Nieuwenhuizen,M,,2005,Raw,Open,Netherlands,72.3,74,115,125,-135,125,62.5,67.5,-72.5,67.5,130,140,147.5,147.5,340,SBD,senne.vn
DQ,Dion Vos,M,,2007,Raw,Open,Netherlands,71.9,74,135,137.5,142.5,142.5,-92.5,-95,-95,,165,170,177.5,177.5,,SBD,dion_vos1
1,Willem van der Wal,M,,1991,Raw,Open,Netherlands,82.62,83,225,240,245,245,160,165,167.5,167.5,265,-287.5,292.5,292.5,705,SBD
2,Luc Koekelkoren,M,,1998,Raw,Open,Netherlands,82.91,83,232.5,-242.5,242.5,242.5,162.5,170,172.5,172.5,230,255,282.5,282.5,697.5,SBD
3,Lorenzo van der Loo,M,,1997,Raw,Open,Netherlands,81.22,83,-252.5,-257.5,257.5,257.5,150,-157.5,-157.5,150,277.5,287.5,-295,287.5,695,SBD,lorenzovanderloo
4,Timothy Martens,M,,1995,Raw,Open,Netherlands,82.29,83,225,235,-242.5,235,147.5,-152.5,-152.5,147.5,290,305,-312.5,305,687.5,SBD
5,Eray Cingi,M,,1993,Raw,Open,Netherlands,79.74,83,225,235,240,240,150,155,160,160,237.5,255,265,265,665,SBD,eraycng
6,Jeroen Winnen,M,,1986,Raw,Open,Netherlands,81.92,83,210,220,225,225,150,155,-160,155,255,270,-275,270,650,SBD,jeroenwinnen
7,Jan-Rein Gnodde,M,,1997,Raw,Open,Netherlands,81.89,83,220,230,232.5,232.5,145,-152.5,-152.5,145,245,-252.5,-252.5,245,622.5,SBD
8,Shane Tol,M,,1998,Raw,Open,Netherlands,81.11,83,215,222.5,225,225,135,-140,,135,260,-290,-290,260,620,SBD
9,Thijs Oudshoorn,M,,1991,Raw,Open,Netherlands,81.77,83,-210,217.5,220,220,145,150,-155,150,230,240,-245,240,610,SBD
10,Tim Cuppens,M,,1998,Raw,Open,Netherlands,82.24,83,207.5,220,225,225,142.5,150,-152.5,150,215,230,-237.5,230,605,SBD,timcuppens
11,Thomas Veldhuisen,M,,2001,Raw,Open,Netherlands,82.13,83,180,-192.5,200,200,120,-127.5,127.5,127.5,230,245,260,260,587.5,SBD,thomasveldhuisen
12,Cees Snip,M,,1999,Raw,Open,Netherlands,80.35,83,195,210,-220,210,130,137.5,142.5,142.5,210,222.5,232.5,232.5,585,SBD,ceessnip
13,Rick Vermeulen,M,,2002,Raw,Open,Netherlands,81.3,83,190,205,210,210,130,140,150,150,200,215,225,225,585,SBD,rick.h.x
14,Michael Su,M,,1994,Raw,Open,Netherlands,82.68,83,195,207.5,-217.5,207.5,132.5,135,-140,135,230,242.5,-257.5,242.5,585,SBD,michael.faf
15,Bas Kuijf,M,,2000,Raw,Open,Netherlands,82.96,83,195,205,215,215,130,-137.5,-137.5,130,-240,240,-260,240,585,SBD
16,Xander Grigo,M,,2000,Raw,Open,Netherlands,82.95,83,180,200,210,210,110,120,-125,120,-220,240,-242.5,240,570,SBD,grigogains
17,Dave Aspers,M,,2002,Raw,Open,Netherlands,81.5,83,200,210,220,220,115,117.5,120,120,205,215,225,225,565,SBD
18,Raveen van Oldenmark,M,,1996,Raw,Open,Netherlands,82.28,83,200,-210,-210,200,110,115,-117.5,115,225,237.5,250,250,565,SBD,raveen.fit
19,Bram de Ruiter,M,,1998,Raw,Open,Netherlands,81.44,83,185,197.5,-205,197.5,112.5,117.5,125,125,235,-250,-250,235,557.5,SBD,brumbrum_lifts
20,Luka Haenraets,M,,1996,Raw,Open,Netherlands,82.6,83,182.5,195,200,200,110,115,-117.5,115,225,240,-245,240,555,SBD
21,Robbert Rietrae,M,,2000,Raw,Open,Netherlands,82.27,83,192.5,-202.5,-202.5,192.5,-122.5,125,-130,125,225,235,-245,235,552.5,SBD,robbert.r92
22,Wesley de Laat,M,,1996,Raw,Open,Netherlands,80.4,83,207.5,217.5,225,225,117.5,125,-127.5,125,185,197.5,-210,197.5,547.5,SBD,wla.delaat
23,Claudio Palumbo,M,,2001,Raw,Open,Netherlands,81.55,83,205,210,212.5,212.5,115,122.5,-130,122.5,205,210,212.5,212.5,547.5,SBD,barbells_and_chill
24,Wesley Brouwers,M,,1993,Raw,Open,Netherlands,81.32,83,190,200,205,205,-100,100,110,110,205,220,230,230,545,SBD
25,Vincent Klijn,M,,2002,Raw,Open,Netherlands,82.58,83,190,200,-210,200,110,120,-127.5,120,210,220,225,225,545,SBD,vinie.ks
26,Ilyas Krizi,M,,2002,Raw,Open,Netherlands,81.03,83,-152.5,152.5,165,165,-115,122.5,127.5,127.5,225,237.5,250,250,542.5,SBD
27,Richard Hamstra,M,,1991,Raw,Open,Netherlands,81.6,83,-180,185,195,195,100,107.5,112.5,112.5,210,220,230,230,537.5,SBD
28,Bart Schieving,M,,1994,Raw,Open,Netherlands,81.9,83,175,187.5,-195,187.5,115,122.5,130,130,190,205,220,220,537.5,SBD
29,Luka Hoogstraten,M,,2001,Raw,Open,Netherlands,82.0,83,185,195,200,200,117.5,122.5,-125,122.5,195,207.5,215,215,537.5,SBD,luka.030
30,Luuk Janssen,M,,1994,Raw,Open,Netherlands,77.2,83,187.5,197.5,-205,197.5,-115,115,-120,115,-205,205,220,220,532.5,SBD
31,Boaz Hofland,M,,2003,Raw,Open,Netherlands,79.5,83,170,-180,180,180,105,112.5,117.5,117.5,210,225,235,235,532.5,SBD,boazhofland
32,Walther Van Ginkel,M,,2005,Raw,Open,Netherlands,76.73,83,185,195,202.5,202.5,107.5,115,-117.5,115,187.5,200,212.5,212.5,530,SBD
33,Luuk Dercksen,M,,2002,Raw,Open,Netherlands,79.28,83,175,185,195,195,115,120,-125,120,190,205,215,215,530,SBD
34,Mike Daams,M,,2001,Raw,Open,Netherlands,80.9,83,170,182.5,-192.5,182.5,115,122.5,127.5,127.5,207.5,220,-230,220,530,SBD,mike040_
35,Lukas Ruijer,M,,2003,Raw,Open,Netherlands,81.1,83,180,190,200,200,102.5,110,112.5,112.5,200,217.5,-220,217.5,530,SBD
36,Mark Smolders,M,,2004,Raw,Open,Netherlands,82.0,83,200,-207.5,207.5,207.5,117.5,122.5,-127.5,122.5,200,-210,-210,200,530,SBD,marksmolders_
37,Bink Leerink,M,,2001,Raw,Open,Netherlands,82.0,83,182.5,190,195,195,110,117.5,-120,117.5,205,-217.5,217.5,217.5,530,SBD
38,Gwendo Hardorff,M,,2005,Raw,Open,Netherlands,80.21,83,180,190,200,200,107.5,115,120,120,190,200,-210,200,520,SBD
39,Jip de Veer,M,,2005,Raw,Open,Netherlands,81.99,83,190,200,-207.5,200,102.5,110,115,115,205,-212.5,-212.5,205,520,SBD,jip_deveer
40,Pieter Heuvelmans,M,,1997,Raw,Open,Netherlands,80.7,83,-180,190,195,195,112.5,117.5,122.5,122.5,185,195,200,200,517.5,SBD
41,Daan Leenen,M,,2006,Raw,Open,Netherlands,81.55,83,162.5,170,175,175,100,105,107.5,107.5,220,235,-247.5,235,517.5,SBD,ddaan.pl
42,Marnix Ploeg,M,,2000,Raw,Open,Netherlands,82.45,83,165,175,-180,175,110,115,117.5,117.5,225,-240,-240,225,517.5,SBD
43,Morris Ooms,M,,2004,Raw,Open,Netherlands,82.2,83,-167.5,172.5,182.5,182.5,107.5,115,-117.5,115,197.5,207.5,217.5,217.5,515,SBD,morris.b2b
44,Norris Geafar,M,,2004,Raw,Open,Netherlands,80,83,140,150,160,160,125,135,-142.5,135,200,210,215,215,510,SBD
45,Yannick Broos,M,,2004,Raw,Open,Netherlands,80.6,83,155,-165,170,170,110,115,-120,115,205,215,225,225,510,SBD,yannick.broos
46,Roan van den Berk,M,,2003,Raw,Open,Netherlands,81.19,83,177.5,187.5,192.5,192.5,102.5,107.5,-110,107.5,195,210,-220,210,510,SBD,roan.vdberk
47,Wid Alzhraou,M,,2002,Raw,Open,Netherlands,81.92,83,165,175,185,185,107.5,110,-120,110,195,215,-217.5,215,510,SBD,widalz
48,Duke Imminck,M,,2005,Raw,Open,Netherlands,81.9,83,185,-195,-200,185,102.5,107.5,110,110,197.5,207.5,-212.5,207.5,502.5,SBD,duke_imminck
49,Marc Jensen,M,,2000,Raw,Open,Netherlands,82.0,83,162.5,170,175,175,110,117.5,-125,117.5,190,200,210,210,502.5,SBD
50,Niels van den Heuvel,M,,2005,Raw,Open,Netherlands,77.7,83,157.5,170,175,175,117.5,122.5,-127.5,122.5,187.5,-202.5,202.5,202.5,500,SBD,niels.vandenheuvel
51,ertugrul yesil,M,,2000,Raw,Open,Netherlands,79.89,83,160,167.5,172.5,172.5,102.5,107.5,112.5,112.5,205,215,-220,215,500,SBD
52,Lars Weststrate,M,,1999,Raw,Open,Netherlands,81.1,83,155,157.5,165,165,110,117.5,-125,117.5,190,205,210,210,492.5,SBD
53,Brian Herrebrugh,M,,2005,Raw,Open,Netherlands,78.4,83,160,170,-180,170,75,80,85,85,205,215,225,225,480,SBD
54,Vincent Tjia,M,,2005,Raw,Open,Netherlands,74.28,83,150,160,170,170,97.5,-102.5,102.5,102.5,170,180,200,200,472.5,SBD
55,Gijs Valentin Blom,M,,1998,Raw,Open,Netherlands,81.81,83,140,150,160,160,95,100,105,105,175,187.5,200,200,465,SBD,gijsvblom
56,Justin Klaver,M,,2001,Raw,Open,Netherlands,82.18,83,155,160,162.5,162.5,100,105,-107.5,105,185,195,-200,195,462.5,SBD,justinliftin
57,Stan Turner,M,,2002,Raw,Open,Netherlands,76.66,83,140,145,150,150,100,107.5,112.5,112.5,175,190,197.5,197.5,460,SBD,stanturnerr
58,Roan Akkerman,M,,2005,Raw,Open,Netherlands,81.36,83,160,172.5,-180,172.5,95,100,102.5,102.5,160,172.5,185,185,460,SBD,roan0512
59,Stijn Tramper,M,,2002,Raw,Open,Netherlands,81.38,83,137.5,147.5,-155,147.5,117.5,122.5,-125,122.5,180,-190,-190,180,450,SBD,stijn_tramper
60,Anka Kara,M,,2001,Raw,Open,Netherlands,79.40,83,-145,145,-155,145,112.5,-117.5,117.5,117.5,165,172.5,180,180,442.5,SBD,ankakara
61,Beau Remerij,M,,1999,Raw,Open,Netherlands,81.5,83,155,165,-170,165,90,97.5,102.5,102.5,155,167.5,175,175,442.5,SBD
62,Joeri van 't Hoog,M,,2007,Raw,Open,Netherlands,75.64,83,130,140,-150,140,105,-115,115,115,170,180,-190,180,435,SBD,j033_sk
63,Jelle van ‘t Hol,M,,2002,Raw,Open,Netherlands,81.43,83,117.5,-125,127.5,127.5,117.5,-122.5,-122.5,117.5,165,175,185,185,430,SBD,jellevanth
64,Mike Beekhof,M,,2000,Raw,Open,Netherlands,80.6,83,130,140,145,145,85,-90,-90,85,175,185,-195,185,415,SBD
65,Sander de Bree,M,,2001,Raw,Open,Netherlands,81.27,83,140,150,-160,150,80,85,-90,85,155,165,175,175,410,SBD
66,Vins Gerits,M,,2006,Raw,Open,Netherlands,80.31,83,122.5,125,135,135,80,-87.5,-87.5,80,180,190,-200,190,405,SBD,vins.liftz
67,Igor van Bergen,M,,2006,Raw,Open,Netherlands,81.15,83,145,155,160,160,80,87.5,92.5,92.5,-150,150,,150,402.5,SBD,igorvbergen_
68,Ermano Giskes,M,,2007,Raw,Open,Netherlands,75.81,83,132.5,142.5,-150,142.5,77.5,85,-90,85,157.5,170,-185,170,397.5,SBD,ermano.sbd
69,Luuc Dekker,M,,2009,Raw,Open,Netherlands,76.08,83,115,125,135,135,72.5,80,87.5,87.5,145,160,170,170,392.5,SBD,luucdekkerr
70,Jayden van Duijn,M,,2005,Raw,Open,Netherlands,79.88,83,130,135,-140,135,-90,90,-92.5,90,160,-165,,160,385,SBD
71,Sander Anthonissen,M,,2002,Raw,Open,Netherlands,81.01,83,130,135,-140,135,100,-102.5,-102.5,100,140,150,-155,150,385,SBD,sanderanthonissen_
72,Jan Smits,M,,1952,Raw,Open,Netherlands,81.13,83,112.5,117.5,-122.5,117.5,72.5,-77.5,-77.5,72.5,145,155,160,160,350,SBD
73,Koen van der Sterren,M,,1982,Raw,Open,Netherlands,81.02,83,115,125,-135,125,90,95,-97.5,95,120,-130,-130,120,340,SBD,vandersterrengeeftles
74,Timo Langeveld,M,,2006,Raw,Open,Netherlands,81.95,83,100,107.5,115,115,70,75,-80,75,125,137.5,150,150,340,SBD,071._.timo
75,Marvin van Berlo,M,,2003,Raw,Open,Netherlands,81.5,83,-75,75,,75,127.5,135,-140,135,75,,,75,285,SBD,marvinvblifts
DQ,Jilano van Tol,M,,2004,Raw,Open,Netherlands,78.3,83,150,-165,-170,150,-100,-105,-105,,220,225,-240,225,,SBD,j1lanoo
DQ,Luca Schleicher,M,,2005,Raw,Open,Netherlands,81.32,83,142.5,147.5,150,150,-87.5,-92.5,-92.5,,162.5,170,180,180,,SBD
DQ,Tom Jansen,M,,2002,Raw,Open,Netherlands,81.4,83,160,-170,-170,160,-95,-100,-100,,192.5,202.5,-210,202.5,,SBD,tomj_0485
DQ,Thomas Koeling,M,,2001,Raw,Open,Netherlands,82.7,83,-170,-170,-170,,,,,,,,,,,SBD
1,Richard van Bezooijen,M,,1996,Raw,Open,Netherlands,92.14,93,270,290,-300,290,175,182.5,-187.5,182.5,290,310,327.5,327.5,800,SBD,richard.v.b
2,Olivier Tijhuis,M,,1995,Raw,Open,Netherlands,92.41,93,-245,252.5,265,265,162.5,170,172.5,172.5,260,275,285,285,722.5,SBD
3,Lars Oomkes,M,,1999,Raw,Open,Netherlands,91.31,93,250,260,267.5,267.5,147.5,152.5,-155,152.5,275,287.5,-302.5,287.5,707.5,SBD,l.oomkes_fitness
4,Thomas Nigon,M,,1996,Raw,Open,Netherlands,92.95,93,210,222.5,232.5,232.5,135,145,-152.5,145,290,305,317.5,317.5,695,SBD
5,Joery Wesseling,M,,1999,Raw,Open,Netherlands,92.93,93,252.5,-267.5,267.5,267.5,150,155,-157.5,155,250,270,-287.5,270,692.5,SBD
6,Gerard Pruijsen,M,,1990,Raw,Open,Netherlands,92.23,93,220,240,245,245,160,172.5,-177.5,172.5,240,260,-277.5,260,677.5,SBD
7,William Gamboa,M,,2000,Raw,Open,Netherlands,91.7,93,240,-247.5,-247.5,240,142.5,147.5,-152.5,147.5,270,285,,285,672.5,SBD,willie.levy
8,Enes Sen,M,,1999,Raw,Open,Netherlands,89.87,93,217.5,237.5,245,245,140,150,-155,150,245,260,-270,260,655,SBD,v.e.sen
9,Jeroen Grimbergen,M,,2000,Raw,Open,Netherlands,90.98,93,227.5,240,-247.5,240,135,142.5,-145,142.5,240,257.5,265,265,647.5,SBD
10,Robin Triep,M,,1999,Raw,Open,Netherlands,92.4,93,-235,235,-250,235,140,150,155,155,235,255,-260,255,645,SBD
11,Michel Laugs,M,,1984,Raw,Open,Netherlands,88.95,93,202.5,215,-225,215,152.5,160,-165,160,245,255,262.5,262.5,637.5,SBD
12,Sam ter Mors,M,,1999,Raw,Open,Netherlands,91.71,93,187.5,200,210,210,140,150,152.5,152.5,240,255,-275,255,617.5,SBD
13,Jim van de Ven,M,,1990,Raw,Open,Netherlands,92.76,93,195,210,-215,210,135,142.5,145,145,240,260,-265,260,615,SBD
14,Igor Nadorp,M,,1996,Raw,Open,Netherlands,89.00,93,210,222.5,230,230,125,132.5,137.5,137.5,225,237.5,245,245,612.5,SBD,igornadorp
15,Joeri Vliex,M,,1997,Raw,Open,Netherlands,91.8,93,205,-212.5,215,215,130,137.5,-140,137.5,235,250,260,260,612.5,SBD
16,Siebe van Helden,M,,2001,Raw,Open,Netherlands,91.84,93,200,210,-217.5,210,127.5,130,-132.5,130,250,260,270,270,610,SBD,siiiebe
17,Daan Griffioen,M,,2001,Raw,Open,Netherlands,92.99,93,185,195,205,205,137.5,142.5,-147.5,142.5,225,245,260,260,607.5,SBD,daan.griffioen
18,Elmar Geerlings,M,,1997,Raw,Open,Netherlands,92.13,93,200,210,-220,210,125,-132.5,-132.5,125,250,270,-280,270,605,SBD
19,Kwok Yee Chu,M,,1996,Raw,Open,Netherlands,86.2,93,192.5,205,212.5,212.5,122.5,130,-135,130,230,245,257.5,257.5,600,SBD
20,Tommie Kalb,M,,2003,Raw,Open,Netherlands,89.89,93,200,-215,-220,200,130,135,-140,135,-240,240,265,265,600,SBD
21,Jack van Vlerken,M,,2000,Raw,Open,Netherlands,92.36,93,210,222.5,230,230,-115,-115,115,115,230,245,255,255,600,SBD
22,Jeroen van Leeuwen,M,,1998,Raw,Open,Netherlands,92.03,93,200,210,217.5,217.5,127.5,132.5,-135,132.5,230,242.5,247.5,247.5,597.5,SBD,jeroenvl_
23,Rinke Jansen,M,,2004,Raw,Open,Netherlands,90.53,93,210,220,-230,220,125,130,-132.5,130,220,235,242.5,242.5,592.5,SBD,rinkejansen_
24,Tobias Rosendaal,M,,2000,Raw,Open,Netherlands,91.87,93,190,200,207.5,207.5,135,142.5,-147.5,142.5,210,225,242.5,242.5,592.5,SBD,tobias_rosendaal
25,Jesse Blaauw,M,,1998,Raw,Open,Netherlands,92.13,93,-185,185,202.5,202.5,115,120,-127.5,120,240,255,270,270,592.5,SBD
26,Stijn Oudshoorn,M,,2007,Raw,Open,Netherlands,93.0,93,190,200,210,210,125,130,135,135,220,232.5,245,245,590,SBD,lifting.stijn
27,Stan Kuipers,M,,2002,Raw,Open,Netherlands,88.7,93,207.5,220,230,230,110,122.5,-125,122.5,210,222.5,235,235,587.5,SBD,stp.kuipers
28,Kick Karten,M,,2006,Raw,Open,Netherlands,91.70,93,195,207.5,225,225,125,130,135,135,200,212.5,225,225,585,SBD
29,Zyco van Esveld,M,,1999,Raw,Open,Netherlands,91.94,93,175,190,-202.5,190,145,,,145,225,237.5,250,250,585,SBD,zycovanesveld
30,Milan van Uitert,M,,2003,Raw,Open,Netherlands,88.3,93,200,210,220,220,120,127.5,-132.5,127.5,220,235,-252.5,235,582.5,SBD,milanvanuitert
31,Dominiek Trommelen,M,,1994,Raw,Open,Netherlands,91.3,93,185,190,197.5,197.5,107.5,115,120,120,235,250,265,265,582.5,SBD,niektrommelen
32,Joseph Pinto Hurtado,M,,1998,Raw,Open,Netherlands,88.99,93,190,-202.5,205,205,110,117.5,125,125,235,250,-270,250,580,SBD
33,Luka Pshybysh,M,,2004,Raw,Open,Netherlands,92.83,93,200,210,220,220,120,-130,-130,120,240,-250,-250,240,580,SBD,chogori.l
34,Niels Krol,M,,2003,Raw,Open,Netherlands,91.7,93,200,202.5,-220,202.5,120,130,-135,130,235,245,-250,245,577.5,SBD
35,Youp Gruijters,M,,1994,Raw,Open,Netherlands,89.0,93,180,190,200,200,132.5,140,-147.5,140,212.5,225,235,235,575,SBD
36,Julius van Hulst,M,,2001,Raw,Open,Netherlands,86.4,93,190,197.5,205,205,105,110,112.5,112.5,-237.5,245,252.5,252.5,570,SBD
37,yannick berends,M,,2005,Raw,Open,Netherlands,91.18,93,190,-200,-205,190,120,127.5,-135,127.5,225,240,252.5,252.5,570,SBD
38,David Plug,M,,2004,Raw,Open,Netherlands,91.52,93,200,210,220,220,102.5,110,117.5,117.5,210,225,232.5,232.5,570,SBD
39,Emre Ekmekci,M,,2000,Raw,Open,Netherlands,88.6,93,200,210,-215,210,127.5,-135,135,135,205,222.5,-240,222.5,567.5,SBD,emre_ekmekci1
40,Marco Müller,M,,1998,Raw,Open,Netherlands,88.7,93,195,212.5,-222.5,212.5,110,117.5,122.5,122.5,215,232.5,-240,232.5,567.5,SBD,marco.danielm
41,Willem Jochems,M,,2002,Raw,Open,Netherlands,92.0,93,185,-187.5,187.5,187.5,125,135,-145,135,210,235,245,245,567.5,SBD,willem_jochems1
42,Joshua Ys,M,,2003,Raw,Open,Netherlands,89.42,93,200,212.5,-222.5,212.5,92.5,100,105,105,230,245,-265,245,562.5,SBD,joshua619
43,Ian de Ronde,M,,2001,Raw,Open,Netherlands,91.2,93,185,195,202.5,202.5,80,90,100,100,230,247.5,260,260,562.5,SBD
44,Bas Geluk,M,,2000,Raw,Open,Netherlands,91.2,93,-175,180,-190,180,127.5,135,137.5,137.5,225,245,-260,245,562.5,SBD,basgeluk_
45,Enrique Boven,M,,2002,Raw,Open,Netherlands,91.77,93,192.5,202.5,-207.5,202.5,107.5,115,120,120,215,230,240,240,562.5,SBD
46,Tijn Jansen,M,,2002,Raw,Open,Netherlands,89.4,93,190,-200,-205,190,110,-112.5,120,120,230,250,-260,250,560,SBD,sportivitijn
47,Dion Wel Van der wel,M,,2005,Raw,Open,Netherlands,89.49,93,175,185,,185,127.5,132.5,135,135,240,-245,,240,560,SBD,dionbicep
48,Simon Klaassen,M,,1999,Raw,Open,Netherlands,91.2,93,180,187.5,192.5,192.5,-112.5,117.5,-120,117.5,235,242.5,250,250,560,SBD,_simonklaassen
49,Collin Kort,M,,2002,Raw,Open,Netherlands,91.7,93,192.5,197.5,-200,197.5,115,120,-125,120,225,237.5,242.5,242.5,560,SBD,collin_kort
50,Gijs Wormskamp,M,,1997,Raw,Open,Netherlands,92.22,93,190,200,,200,130,135,-140,135,210,225,-250,225,560,SBD
51,Igor Halink,M,,1989,Raw,Open,Netherlands,91.9,93,180,190,-200,190,122.5,127.5,-132.5,127.5,220,240,-260,240,557.5,SBD,iggy_meister
52,Thomas Bos,M,,1991,Raw,Open,Netherlands,92.04,93,190,200,-207.5,200,115,125,-130,125,210,230,-242.5,230,555,SBD,thomas_.bos
53,Bas Diks,M,,1985,Raw,Open,Netherlands,91.48,93,165,175,182.5,182.5,100,105,110,110,220,240,260,260,552.5,SBD
54,Sep Teunissen,M,,2003,Raw,Open,Netherlands,91.58,93,-190,190,-205,190,120,-127.5,127.5,127.5,215,225,235,235,552.5,SBD,septeunissen
55,Justin Milan,M,,2003,Raw,Open,Netherlands,91.9,93,185,197.5,205,205,-107.5,112.5,120,120,205,217.5,225,225,550,SBD,justinnmiln_
56,Tuan Pham,M,,1994,Raw,Open,Netherlands,92.0,93,182.5,192.5,197.5,197.5,117.5,122.5,125,125,210,227.5,-237.5,227.5,550,SBD
57,Marvin Jansen,M,,1996,Raw,Open,Netherlands,92.2,93,192.5,200,205,205,117.5,-120,120,120,205,215,225,225,550,SBD,marvin_jansen
58,Klemen Smrekar,M,,1992,Raw,Open,Netherlands,92.7,93,200,220,-222.5,220,100,110,-115,110,200,-220,220,220,550,SBD
59,Mike den Hartog,M,,2001,Raw,Open,Netherlands,91.25,93,175,182.5,-190,182.5,165,-170,-170,165,200,-215,-222.5,200,547.5,SBD
60,Ruud Droeghaag,M,,1996,Raw,Open,Netherlands,92.6,93,185,192.5,200,200,117.5,122.5,127.5,127.5,205,220,-230,220,547.5,SBD,r.droeghaag
61,Cas Huiberts,M,,2002,Raw,Open,Netherlands,88.36,93,182.5,-190,190,190,110,117.5,122.5,122.5,210,220,230,230,542.5,SBD,huibertscas
62,Joep van Dormolen,M,,1993,Raw,Open,Netherlands,88.8,93,175,182.5,192.5,192.5,125,-130,130,130,205,212.5,220,220,542.5,SBD
63,Jaron van der Wekken,M,,2001,Raw,Open,Netherlands,88.38,93,185,-192.5,-195,185,120,125,-130,125,220,230,-240,230,540,SBD,jaronwekken
64,Milan Daalhuisen,M,,1999,Raw,Open,Netherlands,92.5,93,177.5,187.5,-192.5,187.5,120,127.5,132.5,132.5,195,207.5,217.5,217.5,537.5,SBD
65,Sebastiyan Kalabalakov,M,,2003,Raw,Open,Netherlands,92.6,93,180,192.5,-200,192.5,110,115,-117.5,115,210,225,230,230,537.5,SBD,skal_lifts
66,Daan Gruijters,M,,1993,Raw,Open,Netherlands,85.71,93,175,185,-195,185,105,-115,115,115,215,225,230,230,530,SBD,daangruijters
67,Daniel Roffelsen,M,,2001,Raw,Open,Netherlands,90.78,93,-180,-180,180,180,110,115,120,120,220,230,-240,230,530,SBD,daniel_roffelsen
68,Emre Ilhan,M,,2006,Raw,Open,Netherlands,88.66,93,167.5,177.5,187.5,187.5,117.5,125,132.5,132.5,175,190,205,205,525,SBD,emre.oi.pl
69,Jay Pijlman,M,,1998,Raw,Open,Netherlands,91.1,93,165,175,180,180,110,-117.5,117.5,117.5,195,210,225,225,522.5,SBD
70,Tim Rutjens,M,,2004,Raw,Open,Netherlands,92.0,93,172.5,175,-200,175,115,125,-135,125,205,220,-235,220,520,SBD,timrutjens_
71,Jules Delage-Davies,M,,2002,Raw,Open,Netherlands,88.15,93,172.5,182.5,190,190,92.5,100,-102.5,100,200,212.5,220,220,510,SBD,julespowerlifting
72,Rick Hendrikx,M,,1994,Raw,Open,Netherlands,88.94,93,170,-180,180,180,107.5,115,-120,115,200,207.5,215,215,510,SBD
73,Ben Feiereisen,M,,2004,Raw,Open,Luxembourg,90.26,93,175,182.5,190,190,100,102.5,105,105,190,200,215,215,510,SBD
74,Hidde Klaver,M,,2006,Raw,Open,Netherlands,91.6,93,150,160,165,165,105,110,117.5,117.5,210,220,227.5,227.5,510,SBD,hiddeklaver
75,Anass Raghi,M,,2004,Raw,Open,Netherlands,93,93,-180,-180,180,180,95,105,-112.5,105,205,225,-237.5,225,510,SBD,anass0fficial
76,Binck Gudde,M,,2004,Raw,Open,Netherlands,87.91,93,190,-200,-205,190,100,110,-115,110,185,200,-210,200,500,SBD,binck.gd
77,Gijs Hilbers,M,,1996,Raw,Open,Netherlands,90.30,93,160,167.5,170,170,125,-130,-130,125,195,200,205,205,500,SBD,gijshilbers
78,Michael Geers,M,,2005,Raw,Open,Netherlands,91.34,93,170,180,-185,180,112.5,120,-122.5,120,185,200,-210,200,500,SBD,michael_geers
79,Mart Hodzelmans,M,,2006,Raw,Open,Netherlands,91.50,93,180,-190,-190,180,102.5,107.5,110,110,180,192.5,205,205,495,SBD
80,Ivar Houtveen,M,,2005,Raw,Open,Netherlands,92.0,93,-160,165,175,175,95,105,-112.5,105,190,-205,215,215,495,SBD,ivar.hv
81,Ysbrand Van Zanten,M,,2005,Raw,Open,Netherlands,92.11,93,157.5,165,175,175,110,115,120,120,180,200,-210,200,495,SBD,ysbrand_vz
82,Rutger Melisse,M,,2007,Raw,Open,Netherlands,83.48,93,-160,170,180,180,107.5,115,120,120,170,180,190,190,490,SBD,melisse.rutger
83,Raf Huber,M,,2003,Raw,Open,Netherlands,86.58,93,157.5,160,172.5,172.5,-97.5,97.5,102.5,102.5,195,205,215,215,490,SBD
84,Mees van Dijk,M,,2003,Raw,Open,Netherlands,89.77,93,155,165,175,175,90,100,-107.5,100,185,200,207.5,207.5,482.5,SBD
85,Louis ten Hacken,M,,2005,Raw,Open,Netherlands,85.0,93,145,-152.5,152.5,152.5,110,-120,-125,110,200,210,,210,472.5,SBD
86,Tim Spaan,M,,2005,Raw,Open,Netherlands,88.90,93,147.5,157.5,162.5,162.5,100,-110,110,110,180,192.5,200,200,472.5,SBD
87,Casper Van Mook,M,,2003,Raw,Open,Netherlands,89.75,93,137.5,147.5,152.5,152.5,90,95,-100,95,190,200,207.5,207.5,455,SBD,casper.pl
88,Patrick Massop,M,,1994,Raw,Open,Netherlands,89.83,93,140,147.5,155,155,85,90,92.5,92.5,187.5,202.5,-210,202.5,450,SBD,patrickmassop_
89,Lucas Feijtel,M,,2000,Raw,Open,Netherlands,91.59,93,147.5,152.5,160,160,97.5,102.5,-110,102.5,170,180,187.5,187.5,450,SBD
90,Fedde-Geert Kingma,M,,1975,Raw,Open,Netherlands,86.46,93,150,160,167.5,167.5,95,100,-105,100,167.5,177.5,-185,177.5,445,SBD
91,Luc Jansen,M,,1996,Raw,Open,Netherlands,90.68,93,137.5,145,150,150,95,100,-105,100,180,190,195,195,445,SBD
92,Klaas Jansen,M,,1964,Raw,Open,Netherlands,90.67,93,117.5,127.5,-132.5,127.5,75,80,85,85,130,140,-150,140,352.5,SBD
93,Jonathan Rodrigues de Miranda,M,,1999,Raw,Open,Netherlands,92.84,93,50,62.5,75,75,-120,120,127.5,127.5,75,,,75,277.5,SBD
DQ,Maurits Maas,M,,2005,Raw,Open,Netherlands,86.9,93,170,180,185,185,-127.5,-132.5,-132.5,,-205,220,230,230,,SBD,mau.maas
DQ,Stefan Voogd,M,,1993,Raw,Open,Netherlands,89.9,93,170,-172.5,190,190,-110,-110,-120,,220,230,240,240,,SBD
DQ,Siemen de Haan,M,,1963,Raw,Open,Netherlands,90.68,93,-125,-125,-125,,-80,80,87.5,87.5,165,175,182.5,182.5,,SBD
DQ,Hugo van Rijswijk,M,,2003,Raw,Open,Netherlands,91.84,93,-205,-210,-210,,100,105,110,110,240,-260,-275,240,,SBD,hugovrijswijk
1,Jaime Santillana Izquierdo,M,,2003,Raw,Open,Spain,100.2,105,250,262.5,275,275,147.5,155,160,160,255,275,300,300,735,SBD
2,Noud van Hoek,M,,1998,Raw,Open,Netherlands,103.2,105,255,-265,265,265,160,165,167.5,167.5,272.5,287.5,292.5,292.5,725,SBD,noudvhoek
3,Luke Koning,M,,2003,Raw,Open,Netherlands,101.7,105,240,252.5,262.5,262.5,140,155,165,165,265,282.5,292.5,292.5,720,SBD
4,Fabian Reehuis,M,,1995,Raw,Open,Netherlands,103.7,105,255,270,275,275,145,150,-152.5,150,255,275,285,285,710,SBD,frliftz
5,Tsjerk Lek,M,,1999,Raw,Open,Netherlands,102.9,105,-252.5,-257.5,257.5,257.5,177.5,185,,185,240,252.5,260,260,702.5,SBD
6,Juan Manuel Camiña Martin,M,,1995,Raw,Open,Spain,103.4,105,235,245,250,250,157.5,162.5,165,165,265,282.5,-297.5,282.5,697.5,SBD
7,Lars van der Star,M,,1998,Raw,Open,Netherlands,103.1,105,-247.5,-247.5,247.5,247.5,137.5,142.5,-147.5,142.5,262.5,275,-280,275,665,SBD,larsvds
8,Mark Oost,M,,1998,Raw,Open,Netherlands,103.9,105,240,260,-270,260,140,147.5,-152.5,147.5,230,250,255,255,662.5,SBD
9,Roy Hurkens,M,,1998,Raw,Open,Netherlands,102.7,105,220,-235,245,245,125,132.5,-137.5,132.5,255,-270,280,280,657.5,SBD,roys_pb
10,Justin Schulz,M,,1997,Raw,Open,Netherlands,104.6,105,225,240,-247.5,240,145,152.5,157.5,157.5,235,250,260,260,657.5,SBD,justinschulz33
11,Rinus de Wit,M,,1999,Raw,Open,Netherlands,103.9,105,220,232.5,-240,232.5,145,152.5,160,160,230,245,260,260,652.5,SBD,rinus_dewit
12,Guido Carucci,M,,2003,Raw,Open,Netherlands,102.8,105,225,-237.5,237.5,237.5,-150,150,-155,150,245,260,-275,260,647.5,SBD,guidoliftz
13,Auke van Dorland,M,,2001,Raw,Open,Netherlands,104.3,105,-210,215,225,225,152.5,162.5,-170,162.5,215,232.5,245,245,632.5,SBD,thedutchoak
14,Jeroen Dijkman,M,,2000,Raw,Open,Netherlands,96.7,105,-202.5,207.5,215,215,150,157.5,-160,157.5,230,242.5,255,255,627.5,SBD,jeroendijkman_
15,Erwin Reijenga,M,,1994,Raw,Open,Netherlands,102.5,105,200,210,215,215,130,-135,-135,130,-250,265,280,280,625,SBD
16,Menno Bouma,M,,1999,Raw,Open,Netherlands,101.3,105,215,230,-240,230,120,127.5,135,135,230,245,255,255,620,SBD,ssjmenno
17,Maarten Kuunders,M,,2005,Raw,Open,Netherlands,97.52,105,190,200,210,210,125,132.5,140,140,240,252.5,265,265,615,SBD,maartenkuunders_
18,Gerjan van de Kraats,M,,2002,Raw,Open,Netherlands,102.12,105,185,195,205,205,152.5,157.5,162.5,162.5,220,232.5,240,240,607.5,SBD,gerjanlifts
19,Jack Wisman,M,,2006,Raw,Open,Netherlands,103.1,105,210,220,230,230,130,137.5,-142.5,137.5,230,240,,240,607.5,SBD,jackliftz_
20,Luke Keeven,M,,2006,Raw,Open,Netherlands,103.3,105,-235,-235,235,235,130,137.5,-140,137.5,225,232.5,235,235,607.5,SBD,luke.keeven
21,Miloš Ristić,M,,2002,Raw,Open,Netherlands,97.76,105,215,225,-235,225,135,145,150,150,205,220,230,230,605,SBD
22,Finn Verschoor,M,,2002,Raw,Open,Netherlands,100.33,105,200,210,-220,210,117.5,125,130,130,240,260,-270,260,600,SBD,finnverschoor_
23,Marcel Weijers,M,,2003,Raw,Open,Netherlands,101.35,105,190,202.5,210,210,97.5,105,-107.5,105,260,275,285,285,600,SBD,marcelweijers43
24,Thomas Gubbels,M,,2001,Raw,Open,Netherlands,101.82,105,180,195,200,200,150,155,157.5,157.5,-225,235,242.5,242.5,600,SBD,thomas_gubbels
25,Jesper Meessen,M,,1999,Raw,Open,Netherlands,102.77,105,-190,195,200,200,132.5,137.5,140,140,235,250,260,260,600,SBD,jespermeessen
26,Finn Groenendaal,M,,2005,Raw,Open,Netherlands,104.17,105,187.5,197.5,207.5,207.5,127.5,-132.5,-132.5,127.5,235,250,265,265,600,SBD,finn.groenendaal
27,Bernd Haaijer,M,,1996,Raw,Open,Netherlands,102.4,105,215,225,-230,225,120,125,130,130,225,235,240,240,595,SBD,berndhaaijer
28,Ruben Tissink,M,,1989,Raw,Open,Netherlands,104.1,105,200,210,-217.5,210,125,-130,-130,125,240,260,-272.5,260,595,SBD
29,Alje Boersma,M,,1996,Raw,Open,Netherlands,104.2,105,205,212.5,-215,212.5,120,127.5,-132.5,127.5,235,250,-255,250,590,SBD,aljeboersma
30,Thomas van Helsum,M,,1990,Raw,Open,Netherlands,95.99,105,200,210,220,220,140,147.5,155,155,-200,200,210,210,585,SBD
31,Joris Buys,M,,2003,Raw,Open,Netherlands,99.3,105,185,200,210,210,120,127.5,-132.5,127.5,225,245,-260,245,582.5,SBD,jorisbuys
32,Zennar den Hartog,M,,2000,Raw,Open,Netherlands,101.59,105,175,187.5,197.5,197.5,115,125,-127.5,125,240,260,-275,260,582.5,SBD,zeunert_
33,Marijn van Ginneken,M,,2003,Raw,Open,Netherlands,98.13,105,185,195,202.5,202.5,105,110,117.5,117.5,225,240,255,255,575,SBD
34,Jeroen van de Pasch,M,,1999,Raw,Open,Netherlands,97.62,105,190,205,215,215,110,120,125,125,210,225,232.5,232.5,572.5,SBD
35,Mario Alberto Duarte,M,,1972,Raw,Open,Netherlands,100.05,105,205,212.5,220,220,115,122.5,-127.5,122.5,205,220,230,230,572.5,SBD
36,Richard Mulder,M,,1993,Raw,Open,Netherlands,102.9,105,-207.5,-207.5,207.5,207.5,-140,-142.5,142.5,142.5,210,217.5,-225,217.5,567.5,SBD,bodycoach_richard_mulder
37,Chris Steevensz,M,,1991,Raw,Open,Netherlands,97.66,105,-175,180,190,190,117.5,125,130,130,215,230,245,245,565,SBD
38,Sil van Acht,M,,2003,Raw,Open,Netherlands,103.75,105,165,180,190,190,135,142.5,145,145,190,205,220,220,555,SBD,sil_vanacht
39,Ludchano Leliveld,M,,1996,Raw,Open,Netherlands,96.1,105,-182.5,-182.5,182.5,182.5,-125,127.5,-140,127.5,220,235,-242.5,235,545,SBD,pwrlft_leliveld
40,Danté de Vries,M,,2002,Raw,Open,Netherlands,102.08,105,180,192.5,207.5,207.5,127.5,135,-142.5,135,-180,192.5,-205,192.5,535,SBD,dante_devries
41,Jesse Pelgrom,M,,2005,Raw,Open,Netherlands,95.16,105,177.5,190,200,200,105,110,-112.5,110,197.5,212.5,220,220,530,SBD,jessepelgrom
42,Jean van der Meer,M,,1995,Raw,Open,Netherlands,101.16,105,150,160,167.5,167.5,117.5,127.5,137.5,137.5,210,225,-235,225,530,SBD
43,Martijn van Oostveen,M,,1977,Raw,Open,Netherlands,101.46,105,-160,160,-165,160,130,-135,-140,130,220,235,-240,235,525,SBD
44,Eray Hosgor,M,,2005,Raw,Open,Netherlands,105,105,185,195,205,205,110,117.5,-120,117.5,185,195,202.5,202.5,525,SBD,erayhsgr
45,Quinten Verspagen,M,,2003,Raw,Open,Netherlands,98.53,105,190,-205,-210,190,-115,115,-130,115,205,215,-230,215,520,SBD,quinten_verspagen
46,Boaz van der Waard,M,,2007,Raw,Open,Netherlands,93.67,105,155,165,175,175,90,97.5,-100,97.5,205,215,227.5,227.5,500,SBD
47,Dmitry Sallomons,M,,2004,Raw,Open,Netherlands,103.73,105,155,165,175,175,100,107.5,-112.5,107.5,160,180,200,200,482.5,SBD,dmitrysallomons
48,Eelke de Haan,M,,2001,Raw,Open,Netherlands,100.05,105,135,145,152.5,152.5,75,80,82.5,82.5,195,210,220,220,455,SBD,lange.lifts
49,Eric Klessens,M,,2001,Raw,Open,Netherlands,103.08,105,142.5,-152.5,155,155,102.5,110,-115,110,160,172.5,185,185,450,SBD,ericklessens
50,Ruben Hoek,M,,2003,Raw,Open,Netherlands,101.92,105,125,135,145,145,77.5,85,-87.5,85,155,175,-180,175,405,SBD,rubenhoekzwl
51,Arthur Oudshoorn,M,,1964,Raw,Open,Netherlands,100.24,105,85,90,92.5,92.5,67.5,-72.5,77.5,77.5,120,130,135,135,305,SBD
1,Abidin Yuksek,M,,2004,Raw,Open,Netherlands,132.47,120+,250,270,-280,270,-190,195,-205,195,255,285,-305,285,750,SBD
2,Gerard Durinck,M,,1973,Raw,Open,Netherlands,139.02,120+,245,255,260,260,165,-175,175,175,245,-265,265,265,700,SBD,gl_durinck
3,Gosse de Vries,M,,1992,Raw,Open,Netherlands,124.39,120+,205,212.5,222.5,222.5,-137.5,140,145,145,250,262.5,275,275,642.5,SBD
4,Tim Rooijmans,M,,1998,Raw,Open,Netherlands,131.68,120+,-195,-195,195,195,125,130,-132.5,130,220,235,-250,235,560,SBD
5,Viktor Kondakov,M,,1996,Raw,Open,Netherlands,131.27,120+,100,,,100,250,-265,-265,250,100,,,100,450,SBD,viktor__kondakov
