Place,Name,BirthYear,BodyweightKg,WeightClassKg,Squat1Kg,Squat2Kg,Squat3Kg,Best3SquatKg,Bench1Kg,Bench2Kg,Bench3Kg,Best3BenchKg,Deadlift1Kg,Deadlift2Kg,Deadlift3Kg,Best3DeadliftKg,TotalKg,Equipment,Event,BirthDate,Division,Country,Sex
1,Lenka Pilnikova,1983,46.72,47,110,115,117.5,117.5,70,75,77.5,77.5,135,140,145,145,340,Raw,SBD,,Masters 1,UK,F
2,Barbara Deidda,1981,45.8,47,115,-120,-120,115,62.5,65,67.5,67.5,135,140,145,145,327.5,Raw,SBD,,Masters 1,Italy,F
3,Marianne Bouvard,1976,46.42,47,92.5,97.5,-102.5,97.5,65,67.5,-70,67.5,-115,115,122.5,122.5,287.5,Raw,SBD,,Masters 1,France,F
1,Ivana Žonja,1978,51.96,52,95,102.5,-107.5,102.5,50,55,-60,55,115,122.5,130,130,287.5,Raw,SBD,,Masters 1,Croatia,F
2,Daniela Batková,1980,51.9,52,95,105,107.5,107.5,55,57.5,-60,57.5,105,115,120,120,285,Raw,SBD,,Masters 1,Czechia,F
3,Caroline Hoff Hansen,1981,51.14,52,87.5,92.5,97.5,97.5,55,57.5,60,60,100,107.5,112.5,112.5,270,Raw,SBD,,Masters 1,Norway,F
4,Ira Neitzel,1981,50.62,52,97.5,102.5,-105,102.5,57.5,60,-62.5,60,105,-110,-110,105,267.5,Raw,SBD,,Masters 1,Germany,F
1,Elise Rummens,1981,55.76,57,122.5,127.5,132.5,132.5,70,72.5,75,75,165,172.5,182.5,182.5,390,Raw,SBD,,Masters 1,Belgium,F
2,Elisa Guidi,1982,55.18,57,137.5,142.5,-147.5,142.5,80,-85,-85,80,157.5,165,-172.5,165,387.5,Raw,SBD,,Masters 1,Italy,F
3,Helen Hughes #1,1976,56.18,57,115,120,,120,80,85,87.5,87.5,142.5,152.5,157.5,157.5,365,Raw,SBD,,Masters 1,UK,F
4,Katja Lariola,1982,56.64,57,125,-130,130,130,70,75,-77.5,75,150,155,-157.5,155,360,Raw,SBD,,Masters 1,Finland,F
5,Cat Shamel,1977,56.72,57,117.5,122.5,125,125,77.5,82.5,,82.5,145,-152.5,-152.5,145,352.5,Raw,SBD,,Masters 1,UK,F
6,Pernilla Sundberg,1982,56.84,57,120,127.5,135,135,65,67.5,70,70,125,135,140,140,345,Raw,SBD,,Masters 1,Sweden,F
7,Monica Dahle,1978,55.6,57,120,125,127.5,127.5,72.5,75,77.5,77.5,120,-125,-125,120,325,Raw,SBD,,Masters 1,Norway,F
8,Solveig Mehlum Teppen,1975,56.12,57,90,-95,102.5,102.5,65,-70,72.5,72.5,132.5,142.5,-152.5,142.5,317.5,Raw,SBD,,Masters 1,Norway,F
9,Anya Feltreuter,1982,56.52,57,107.5,112.5,115,115,52.5,-57.5,-57.5,52.5,122.5,-127.5,127.5,127.5,295,Raw,SBD,,Masters 1,Sweden,F
10,Varga Veronika,1977,55.72,57,77.5,85,90,90,45,-50,50,50,95,-105,105,105,245,Raw,SBD,,Masters 1,Hungary,F
DQ,Judicaelle Fankou,1977,55.74,57,-127.5,-127.5,-127.5,-127.5,60,65,67.5,67.5,130,137.5,-142.5,137.5,,Raw,SBD,,Masters 1,France,F
1,Nataliia Zhukovska,1981,62.88,63,142.5,-147.5,147.5,147.5,90,95,-97.5,95,195,202.5,205.5,205.5,448,Raw,SBD,,Masters 1,Ukraine,F
2,Hannah Yardy,1982,62.32,63,145,152.5,,152.5,85,90,95,95,170,182.5,187.5,187.5,435,Raw,SBD,,Masters 1,UK,F
3,Katri Backman,1977,61.1,63,-142.5,142.5,150,150,80,85,-87.5,85,160,-170,-170,160,395,Raw,SBD,,Masters 1,Finland,F
4,Ilaria Zona,1982,61.24,63,-147.5,152.5,157.5,157.5,75,80,-82.5,80,147.5,152.5,-160,152.5,390,Raw,SBD,,Masters 1,Italy,F
5,Zoraida Bermúdez Doce,1983,61.78,63,125,-132.5,132.5,132.5,87.5,90,92.5,92.5,150,157.5,165,165,390,Raw,SBD,,Masters 1,Spain,F
6,Linh Nguyen #1,1983,61.84,63,140,147.5,150,150,70,-72.5,72.5,72.5,137.5,147.5,152.5,152.5,375,Raw,SBD,,Masters 1,Ireland,F
7,Anne Daineffe,1982,61.86,63,135,-142.5,142.5,142.5,85,90,-95,90,142.5,-150,-150,142.5,375,Raw,SBD,,Masters 1,Belgium,F
8,Linn Malmsten,1983,61.92,63,122.5,130,-135,130,77.5,82.5,85,85,157.5,-170,-170,157.5,372.5,Raw,SBD,,Masters 1,Sweden,F
9,Noreen McDermott,1980,61.44,63,112.5,120,-125,120,75,-80,80,80,145,157.5,165,165,365,Raw,SBD,,Masters 1,Ireland,F
10,Sara Ekström,1980,60.7,63,117.5,127.5,132.5,132.5,67.5,72.5,77.5,77.5,130,140,147.5,147.5,357.5,Raw,SBD,,Masters 1,Sweden,F
11,Daniela Falck,1975,62.66,63,110,-115,115,115,67.5,72.5,-75,72.5,145,150,-155,150,337.5,Raw,SBD,,Masters 1,Germany,F
12,Agata Niewdana,1978,62.06,63,125,-130,-130,125,57.5,60,-62.5,60,135,145,-162.5,145,330,Raw,SBD,,Masters 1,Poland,F
13,Kimberly Ellis #1,1974,58.98,63,102.5,107.5,-112.5,107.5,65,70,72.5,72.5,140,147.5,-155,147.5,327.5,Raw,SBD,,Masters 1,Belgium,F
1,Niamh Savage,1978,68.04,69,-155,155,160,160,75,77.5,-80,77.5,190,202.5,-213,202.5,440,Raw,SBD,,Masters 1,Ireland,F
2,Raquel de la Calle Labarzana,1977,68.74,69,157.5,165,-173,165,72.5,77.5,82.5,82.5,160,170,172.5,172.5,420,Raw,SBD,,Masters 1,Spain,F
3,Colette Haddon,1974,65.52,69,142.5,147.5,152.5,152.5,72.5,75,77.5,77.5,165,175,182.5,182.5,412.5,Raw,SBD,,Masters 1,Netherlands,F
4,Mari Engberg,1982,67.86,69,145,150,152.5,152.5,100,105,107.5,107.5,145,152.5,-157.5,152.5,412.5,Raw,SBD,,Masters 1,Finland,F
5,Olga Nieminen,1982,68.52,69,147.5,152.5,-157.5,152.5,77.5,-82.5,82.5,82.5,157.5,167.5,-170,167.5,402.5,Raw,SBD,,Masters 1,Finland,F
6,Anett Kiss,1976,66.22,69,120,130,-137.5,130,70,77.5,82.5,82.5,167.5,180,-185,180,392.5,Raw,SBD,,Masters 1,Hungary,F
7,Joanne Coogan,1982,67.16,69,-130,130,-135,130,82.5,85,87.5,87.5,160,170,-177.5,170,387.5,Raw,SBD,,Masters 1,Ireland,F
8,Karianne Skjelbred,1975,68.7,69,115,122.5,130,130,67.5,72.5,-75,72.5,165,-175,-175,165,367.5,Raw,SBD,,Masters 1,Norway,F
9,Edita Kanátová,1974,67.74,69,125,130,-132.5,130,65,70,-72.5,70,150,160,-167.5,160,360,Raw,SBD,,Masters 1,Czechia,F
10,Csilla Béres,1983,66.02,69,90,100,-105,100,80,87.5,-90,87.5,120,130,-135,130,317.5,Raw,SBD,,Masters 1,Hungary,F
1,Karen Tvedt,1977,75.54,76,165,172.5,178,178,92.5,97.5,-100,97.5,175,182.5,187.5,187.5,463,Raw,SBD,,Masters 1,Norway,F
2,Androulla Papakonstantinou,1982,73.8,76,132.5,140,145,145,92.5,100,102.5,102.5,170,177.5,182.5,182.5,430,Raw,SBD,,Masters 1,Cyprus,F
3,Saara Laine,1979,73.82,76,145,150,155,155,75,77.5,80,80,175,185,190,190,425,Raw,SBD,,Masters 1,Finland,F
4,Genevieve Collins,1980,72.64,76,145,152.5,157.5,157.5,-85,85,-90,85,165,175,-180,175,417.5,Raw,SBD,,Masters 1,UK,F
5,Linda Vedestig,1978,75.86,76,145,152.5,157.5,157.5,75,80,-85,80,165,172.5,-177.5,172.5,410,Raw,SBD,,Masters 1,Sweden,F
6,Aileen Muldoon,1978,74.32,76,130,140,142.5,142.5,75,-77.5,77.5,77.5,157.5,170,180,180,400,Raw,SBD,,Masters 1,Ireland,F
7,Stefanie Nadine Jakob,1977,75.68,76,120,130,-140,130,90,-97.5,97.5,97.5,150,160,-175,160,387.5,Raw,SBD,,Masters 1,Germany,F
8,Mariana Simion Rönngårdh,1982,74.46,76,122.5,130,-135,130,72.5,77.5,-80,77.5,150,157.5,162.5,162.5,370,Raw,SBD,,Masters 1,Sweden,F
9,Eva Szabados Katalin,1975,74.82,76,130,-140,140,140,57.5,60,62.5,62.5,130,142.5,157.5,157.5,360,Raw,SBD,,Masters 1,Hungary,F
1,Mila Cuevas Mulero,1974,84,84,-160,160,165,165,82.5,85,87.5,87.5,202.5,-214,-218,202.5,455,Raw,SBD,,Masters 1,Spain,F
2,Heidi Bäckström,1982,81.3,84,-150,155,-160,155,82.5,87.5,90,90,160,170,-175,170,415,Raw,SBD,,Masters 1,Finland,F
3,Margaret Carey #1,1982,82.96,84,140,147.5,150,150,72.5,77.5,80,80,162.5,172.5,177.5,177.5,407.5,Raw,SBD,,Masters 1,Ireland,F
4,Kristina Grimstad Nordstrand,1978,82.74,84,-142.5,142.5,147.5,147.5,82.5,87.5,90,90,160,-167.5,-167.5,160,397.5,Raw,SBD,,Masters 1,Norway,F
5,Hannele Eerikäinen,1977,78,84,137.5,142.5,-147.5,142.5,-82.5,82.5,-87.5,82.5,160,170,-175,170,395,Raw,SBD,,Masters 1,Finland,F
6,Julia Szoverfi,1978,83.62,84,120,135,140,140,72.5,77.5,80,80,162.5,-172.5,-172.5,162.5,382.5,Raw,SBD,,Masters 1,Hungary,F
7,Zsuzsa Kárai,1982,76.1,84,125,132.5,-140,132.5,75,80,82.5,82.5,140,150,-155,150,365,Raw,SBD,,Masters 1,Hungary,F
1,Rebecca Coggle,1983,140.32,84+,195,205,210,210,110,115,117.5,117.5,150,160,170,170,497.5,Raw,SBD,,Masters 1,UK,F
2,Helen Ferguson-Ford,1981,129.46,84+,175,-180,180,180,95,100,105,105,180,-192.5,192.5,192.5,477.5,Raw,SBD,,Masters 1,UK,F
3,Liisa Asanti,1978,137.24,84+,155,160,165,165,92.5,97.5,100,100,190,-200,200,200,465,Raw,SBD,,Masters 1,Finland,F
4,Jenny Wik Norling,1975,123.9,84+,160,170,175,175,95,100,-105,100,165,175,180,180,455,Raw,SBD,,Masters 1,Sweden,F
5,Emma Kiely,1974,107.86,84+,122.5,-130,130,130,72.5,77.5,80,80,162.5,172.5,180,180,390,Raw,SBD,,Masters 1,Ireland,F
6,Evelyne Roos,1980,90.94,84+,130,-140,140,140,67.5,72.5,75,75,155,162.5,167.5,167.5,382.5,Raw,SBD,,Masters 1,Belgium,F
1,Elena Borgatti,1969,45.86,47,102.5,108.5,-110,108.5,52.5,57.5,-60,57.5,135,142.5,146.5,146.5,312.5,Raw,SBD,,Masters 2,Italy,F
1,Ann Fornander,1967,51.46,52,107.5,112.5,116,116,45,47.5,50,50,130,140,-151,140,306,Raw,SBD,,Masters 2,Sweden,F
2,Géraldine Verlaine,1970,51.04,52,80,-85,-85,80,65,67.5,70,70,107.5,112.5,-120,112.5,262.5,Raw,SBD,,Masters 2,France,F
DQ,Magdolna Petróczki,1968,51.72,52,-85,-85,-85,-85,62.5,67.5,70,70,110,115,120,120,,Raw,SBD,,Masters 2,Hungary,F
1,Christine Rebello,1972,56.3,57,120,125,131,131,75,77.5,80,80,160,170,-180,170,381,Raw,SBD,,Masters 2,Netherlands,F
2,Petra Mlejnková,1967,53.52,57,117.5,-122.5,122.5,122.5,-67.5,72.5,75,75,132.5,140,142.5,142.5,340,Raw,SBD,,Masters 2,Czechia,F
3,Anita Traasdahl,1969,55.88,57,110,115,117.5,117.5,-70,72.5,77.5,77.5,125,135,-137.5,135,330,Raw,SBD,,Masters 2,Norway,F
4,Karen Burns,1968,56.36,57,115,120,-122.5,120,55,60,-65,60,145,-157.5,-157.5,145,325,Raw,SBD,,Masters 2,UK,F
5,Nina Honka,1972,55.72,57,100,105,-107.5,105,57.5,60,62.5,62.5,135,142.5,145,145,312.5,Raw,SBD,,Masters 2,Finland,F
6,Sarah Flynn,1973,56.6,57,105,112.5,117.5,117.5,50,52.5,-55,52.5,115,125,130,130,300,Raw,SBD,,Masters 2,Ireland,F
7,Ellinor Kempe,1971,56.74,57,102.5,107.5,115,115,47.5,50,52.5,52.5,122.5,-132.5,132.5,132.5,300,Raw,SBD,,Masters 2,Sweden,F
8,Bálintné Katona,1970,54.26,57,70,80,85,85,65,70,75,75,112.5,125,132.5,132.5,292.5,Raw,SBD,,Masters 2,Hungary,F
9,Erika Salamon,1973,56.34,57,80,87.5,,87.5,92.5,97.5,-103,97.5,95,-107.5,107.5,107.5,292.5,Raw,SBD,,Masters 2,Hungary,F
10,Mari Mar Caro Laserna,1968,55.66,57,95,-105,-105,95,45,50,-52.5,50,120,132.5,-135,132.5,277.5,Raw,SBD,,Masters 2,Spain,F
DQ,Sofia Rudin,1968,56.94,57,110,115,-120,115,50,52.5,55,55,-127.5,-127.5,-127.5,-127.5,,Raw,SBD,,Masters 2,Sweden,F
1,Noémie Girot,1967,60.42,63,125,130,-135,130,80,85,87.5,87.5,165,170,-176.5,170,387.5,Raw,SBD,,Masters 2,France,F
2,Francesca Brembilla,1966,62.46,63,135,140.5,,140.5,70,72.5,77.5,77.5,137.5,145,155,155,373,Raw,SBD,,Masters 2,Italy,F
3,Jessica Jading,1971,61.12,63,110,115,120,120,57.5,60,62.5,62.5,160,170.5,-176.5,170.5,353,Raw,SBD,,Masters 2,Sweden,F
4,Jacqui North,1968,61.22,63,115,120,122.5,122.5,52.5,-57.5,60,60,-147.5,147.5,-155,147.5,330,Raw,SBD,,Masters 2,UK,F
5,Sharon Holmes #1,1972,62.78,63,117.5,-122.5,122.5,122.5,70,72.5,77.5,77.5,130,-140,-140,130,330,Raw,SBD,,Masters 2,UK,F
6,Hege Velten,1973,61.16,63,107.5,115,120,120,60,65,-67.5,65,132.5,142.5,-147.5,142.5,327.5,Raw,SBD,,Masters 2,Norway,F
7,Sanna Oksanen,1971,62.58,63,-112.5,112.5,115,115,70,75,-77.5,75,125,132.5,-135,132.5,322.5,Raw,SBD,,Masters 2,Finland,F
8,Kathrin Herold,1971,61.86,63,62.5,65,-70,65,45,-50,-50,45,-112.5,112.5,-122.5,112.5,222.5,Raw,SBD,,Masters 2,Germany,F
1,Dr. Brita Fritsch,1973,68,69,140,145,147.5,147.5,85,87.5,90,90,165,170,176,176,413.5,Raw,SBD,,Masters 2,Germany,F
2,Sanna Joutsela,1973,66.94,69,120,127.5,132.5,132.5,77.5,82.5,87.5,87.5,145,155,162.5,162.5,382.5,Raw,SBD,,Masters 2,Finland,F
3,Karen Barry,1966,68.32,69,-135,135,147.5,147.5,70,75,-77.5,75,140,152.5,-160,152.5,375,Raw,SBD,,Masters 2,Ireland,F
4,Åsa Blomgren,1966,67.28,69,-115,120,125,125,67.5,72.5,75,75,155,162.5,-175.5,162.5,362.5,Raw,SBD,,Masters 2,Sweden,F
5,Terrie Redmore,1970,68.38,69,130,137.5,142.5,142.5,72.5,80,-85,80,140,-147.5,-147.5,140,362.5,Raw,SBD,,Masters 2,UK,F
6,Raquel Martin Tomas,1972,67.96,69,120,125,130,130,57.5,62.5,-67.5,62.5,160,167.5,-172.5,167.5,360,Raw,SBD,,Masters 2,Spain,F
7,Beverley Rodgers,1972,68.58,69,-120,120,125,125,85,90,92.5,92.5,125,130,-140,130,347.5,Raw,SBD,,Masters 2,UK,F
8,Janne Bruhn,1971,67.84,69,100,107.5,-112.5,107.5,67.5,72.5,75,75,135,142.5,147.5,147.5,330,Raw,SBD,,Masters 2,Norway,F
9,Florence Leccese,1969,67.32,69,115,120,125,125,70,75,-77.5,75,115,120,127.5,127.5,327.5,Raw,SBD,,Masters 2,France,F
10,Lászlóné Farkas,1967,67.62,69,110,122.5,-130,122.5,67.5,72.5,-80,72.5,110,120,130,130,325,Raw,SBD,,Masters 2,Hungary,F
11,Kari Holmen Sunnarvik,1966,66.4,69,100,-107.5,-107.5,100,62.5,67.5,-70,67.5,122.5,130,132.5,132.5,300,Raw,SBD,,Masters 2,Norway,F
1,Amelia Allen,1970,74.32,76,135,142.5,-150,142.5,85,92.5,97.5,97.5,150,160,165,165,405,Raw,SBD,,Masters 2,UK,F
2,Mia Öhrnell,1972,75.02,76,157.5,-168,-168,157.5,80,-85,-85,80,150,-160,-165,150,387.5,Raw,SBD,,Masters 2,Sweden,F
3,Helen Twomey,1967,75.28,76,110,115,-120,115,72.5,-75,-75,72.5,150,160,165,165,352.5,Raw,SBD,,Masters 2,Ireland,F
4,Olga Dell,1972,74.98,76,122.5,-127.5,-127.5,122.5,60,62.5,65,65,135,142.5,-147.5,142.5,330,Raw,SBD,,Masters 2,Germany,F
5,Věra Fišerová,1973,73.64,76,95,105,112.5,112.5,42.5,47.5,-50,47.5,120,130,135,135,295,Raw,SBD,,Masters 2,Czechia,F
6,Heidi Sighovd,1971,74.5,76,105,-110,-110,105,70,-75,-75,70,100,110,-115,110,285,Raw,SBD,,Masters 2,Norway,F
7,Ruzsinne Tilesch Judit,1967,75.72,76,87.5,95,-105,95,42.5,50,52.5,52.5,117.5,125,-135,125,272.5,Raw,SBD,,Masters 2,Hungary,F
1,Georgina Hazell,1969,82.86,84,130,140,147.5,147.5,85,90,92.5,92.5,175,190,-198,190,430,Raw,SBD,,Masters 2,UK,F
2,Lorraine McKenna,1973,83.1,84,150,157.5,-162.5,157.5,62.5,65,67.5,67.5,160,167.5,175,175,400,Raw,SBD,,Masters 2,Ireland,F
3,Minna Norismaa,1967,77.54,84,110,117.5,122.5,122.5,60,65,67.5,67.5,125,130,140,140,330,Raw,SBD,,Masters 2,Finland,F
4,Harmath Monika,1973,82.1,84,120,125,130,130,-72.5,-72.5,72.5,72.5,110,120,127.5,127.5,330,Raw,SBD,,Masters 2,Hungary,F
5,Sinikka Korsikko,1969,79.72,84,115,120,127.5,127.5,47.5,50,-55,50,125,135,142.5,142.5,320,Raw,SBD,,Masters 2,Finland,F
DQ,Maja Ileš,1971,81.86,84,-90,90,97.5,97.5,57.5,62.5,65,65,-140,-140,-140,-140,,Raw,SBD,,Masters 2,Croatia,F
1,Libby Blair,1967,118.2,84+,157.5,165,-170,165,80,85,90,90,170,180,185,185,440,Raw,SBD,,Masters 2,UK,F
2,Barbara Claassen,1971,127.38,84+,160,167.5,172.5,172.5,70,77.5,-82.5,77.5,150,160,-180,160,410,Raw,SBD,,Masters 2,Netherlands,F
3,Katarina Beremark,1964,102.12,84+,110,115,122.5,122.5,80,85,90,90,160,170,-177.5,170,382.5,Raw,SBD,,Masters 2,Sweden,F
4,Maarja Öpik,1972,89.42,84+,95,100,-102.5,100,55,57.5,-60,57.5,115,122.5,-130,122.5,280,Raw,SBD,,Masters 2,Estonia,F
5,Kristiina Ahlgrén,1968,113.74,84+,77.5,-87.5,-95,77.5,62.5,-65,,62.5,105,115,-120,115,255,Raw,SBD,,Masters 2,Finland,F
DQ,Kirsi Lehmuskanta,1972,114.94,84+,-97.5,-97.5,-97.5,-97.5,50,52.5,55,55,100,-110,,100,,Raw,SBD,,Masters 2,Finland,F
1,Marzia Girardi,1963,48.92,52,92.5,97.5,-102.5,97.5,47.5,50,52.5,52.5,145,-150.5,150.5,150.5,300.5,Raw,SBD,,Masters 3,Italy,F
2,Carina Jönsson,1962,50.68,52,80,-85,85,85,40,45,-47.5,45,105,-112.5,112.5,112.5,242.5,Raw,SBD,,Masters 3,Sweden,F
3,Jenny Hunter,1958,51.54,52,55,60,65,65,55,60,-62.5,60,95,102.5,112.5,112.5,237.5,Raw,SBD,,Masters 3,UK,F
1,Deborah Tiernan,1963,56.04,57,-105,105,110,110,60,62.5,65,65,130,132.5,-140,132.5,307.5,Raw,SBD,,Masters 3,UK,F
2,Caroline Cunniffe,1957,56.14,57,80,90,95,95,45,-50,-50,45,110,120,122.5,122.5,262.5,Raw,SBD,,Masters 3,Ireland,F
3,Lydie Grouet Molling,1960,55.96,57,75,80,-85,80,55,57.5,-60,57.5,115,120,-122.5,120,257.5,Raw,SBD,,Masters 3,France,F
4,Valerie Dourley,1959,56.26,57,-102.5,-102.5,102.5,102.5,45,-47.5,-47.5,45,105,110,-115,110,257.5,Raw,SBD,,Masters 3,UK,F
1,Joan Trimble,1955,62.26,63,107.5,115,-120.5,115,52.5,57.5,60,60,130,140,147.5,147.5,322.5,Raw,SBD,,Masters 3,UK,F
2,Edith Guennec,1956,61.8,63,100,-107.5,-107.5,100,47.5,50,52.5,52.5,135,140,-142.5,140,292.5,Raw,SBD,,Masters 3,France,F
3,Lilja Helena Birath,1963,60.96,63,92.5,100,102.5,102.5,-37.5,37.5,40,40,115,122.5,125,125,267.5,Raw,SBD,,Masters 3,Sweden,F
4,Mairead Collins,1956,62.46,63,95,100,102.5,102.5,40,-42.5,-42.5,40,110,117.5,-125,117.5,260,Raw,SBD,,Masters 3,Ireland,F
5,Susan Sabuda,1954,61.92,63,77.5,-80,-80,77.5,-50,50,52.5,52.5,115,117.5,-120,117.5,247.5,Raw,SBD,,Masters 3,UK,F
6,Birgit Strehlow,1962,61.46,63,-75,-80,80,80,47.5,50,-55,50,-90,90,-100,90,220,Raw,SBD,,Masters 3,Germany,F
1,Carin Gustafsson,1963,66.7,69,100,107.5,112.5,112.5,75.5,80,82.5,82.5,130,140,142.5,142.5,337.5,Raw,SBD,,Masters 3,Sweden,F
2,Kirsti Løken,1954,68.1,69,-110,116,-120.5,116,62.5,-65,-65,62.5,130,140,145,145,323.5,Raw,SBD,,Masters 3,Norway,F
3,Annelie Gylemo,1958,68.34,69,95,102.5,107.5,107.5,-37.5,37.5,-40,37.5,120,127.5,-135,127.5,272.5,Raw,SBD,,Masters 3,Sweden,F
4,Irene Matinpalo,1961,68.22,69,87.5,92.5,-95,92.5,40,45,-47.5,45,110,117.5,-122.5,117.5,255,Raw,SBD,,Masters 3,Finland,F
5,Caroline Calver,1958,67.12,69,82.5,85,90,90,40,-42.5,42.5,42.5,-112.5,112.5,115,115,247.5,Raw,SBD,,Masters 3,UK,F
1,Elsa Pálsdóttir,1960,73.94,76,125,-138,138,138,62.5,67.5,-70,67.5,155,163,170,170,375.5,Raw,SBD,,Masters 3,Iceland,F
2,Anneli Asikainen,1963,73.28,76,117.5,122.5,-127.5,122.5,57.5,62.5,-65,62.5,157.5,162.5,167.5,167.5,352.5,Raw,SBD,,Masters 3,Finland,F
3,Sara Del Duca,1954,71.08,76,90,95,-100,95,70,-72.5,72.5,72.5,140,150,-160,150,317.5,Raw,SBD,,Masters 3,Italy,F
4,Mary Fusco,1957,73.36,76,95,105,110,110,50,52.5,55,55,110,115,120,120,285,Raw,SBD,,Masters 3,Ireland,F
5,Susanne Bäckström,1960,73.12,76,90,97.5,102.5,102.5,52.5,55,57.5,57.5,112.5,120,-127.5,120,280,Raw,SBD,,Masters 3,Sweden,F
1,Silja Mansikka,1959,76.28,84,85,90,-95,90,40,42.5,45,45,125,135,-140,135,270,Raw,SBD,,Masters 3,Finland,F
1,Monika Norberg,1961,99.06,84+,110,-117.5,-120,110,72.5,77.5,-82.5,77.5,140,156.5,-165,156.5,344,Raw,SBD,,Masters 3,Sweden,F
2,Ann Jordebo,1960,96.08,84+,110,115,-120,115,57.5,62.5,65,65,122.5,132.5,140,140,320,Raw,SBD,,Masters 3,Sweden,F
1,Charito A Kløvstad,1951,56.36,57,65,75,-84,75,35,40,45,45,105,120.5,-125,120.5,240.5,Raw,SBD,,Masters 4,Norway,F
1,Liisa Tiensuu,1953,60.68,63,-65,65,72.5,72.5,45,47.5,50,50,100,107.5,112.5,112.5,235,Raw,SBD,,Masters 4,Finland,F
1,Lise Madsen,1953,67.84,69,47.5,57.5,-65,57.5,37.5,42.5,-47.5,42.5,105,120,-125,120,220,Raw,SBD,,Masters 4,Denmark,F
1,Anne Mari Clausen,1942,69.16,76,47.5,52.5,55,55,37.5,-40,-40,37.5,70,75,-77.5,75,167.5,Raw,SBD,,Masters 4,Norway,F
1,Sébastien Gilibert,1977,57.76,59,100,112.5,-115,112.5,65,70,-72.5,70,150,165,-170,165,347.5,Raw,SBD,,Masters 1,France,M
1,Sławomir Śledź,1976,64.32,66,190,200,-210,200,140,145,150,150,215,-222.5,-222.5,215,565,Raw,SBD,,Masters 1,Poland,M
2,Christian Mameli,1978,64.9,66,165,175,182.5,182.5,115,120,-127.5,120,220,230,235,235,537.5,Raw,SBD,,Masters 1,Italy,M
3,Isidro Lopez Manzano,1981,64.96,66,160,170,177.5,177.5,107.5,112.5,115,115,205,220,-232.5,220,512.5,Raw,SBD,,Masters 1,Spain,M
4,Simon Voakes,1981,65.58,66,145,-152.5,-152.5,145,112.5,115,117.5,117.5,195,205,-215,205,467.5,Raw,SBD,,Masters 1,UK,M
5,Labas Krisztian,1979,63.62,66,130,140,150,150,105,115,-120,115,150,170,-180,170,435,Raw,SBD,,Masters 1,Hungary,M
6,Jiří Völfel,1980,65.26,66,115,125,-130,125,100,105,-107.5,105,150,-160,-160,150,380,Raw,SBD,,Masters 1,Czechia,M
1,Jani Haapamäki,1979,73.5,74,225,235,240,240,160,167.5,172.5,172.5,260,-277.5,-277.5,260,672.5,Raw,SBD,,Masters 1,Finland,M
2,David White #1,1982,73.26,74,222.5,235,242.5,242.5,110,115,120,120,230,245,252.5,252.5,615,Raw,SBD,,Masters 1,UK,M
3,Tomáš Lacko,1982,73.6,74,195,207.5,212.5,212.5,140,147.5,150,150,215,227.5,-235,227.5,590,Raw,SBD,,Masters 1,Czechia,M
4,Anders Ki,1982,73.46,74,175,-185,-185,175,125,130,-135,130,180,-200,-200,180,485,Raw,SBD,,Masters 1,Denmark,M
5,Stelios Nassos,1979,72.22,74,115,120,-125,120,80,90,-92.5,90,140,152.5,-155,152.5,362.5,Raw,SBD,,Masters 1,Sweden,M
1,Massimiliano Buccioni,1976,82.38,83,240,252.5,263.5,263.5,145,152.5,155,155,255,270,282.5,282.5,701,Raw,SBD,,Masters 1,Italy,M
2,Ashkan Farhangi Aghasafari,1978,82.08,83,245,255,260,260,145,150,152.5,152.5,270,282.5,-290,282.5,695,Raw,SBD,,Masters 1,Spain,M
3,Alessandro Cuoghi,1975,81.84,83,240,252.5,260,260,145,155,160,160,-245,250,265,265,685,Raw,SBD,,Masters 1,Italy,M
4,Adem Biyikoğlu,1974,81.98,83,222.5,235,-240,235,147.5,155,160,160,260,275,282.5,282.5,677.5,Raw,SBD,,Masters 1,Turkey,M
5,Raymond Bruynaers,1983,81.46,83,215,230,235,235,140,145,147.5,147.5,247.5,265,-275,265,647.5,Raw,SBD,,Masters 1,Netherlands,M
6,Mark Fulton,1981,82.84,83,205,215,220,220,135,140,145,145,250,-262.5,262.5,262.5,627.5,Raw,SBD,,Masters 1,UK,M
7,Jari Kaarnais,1980,81.52,83,207.5,220,225,225,142.5,150,-155,150,240,-250,250,250,625,Raw,SBD,,Masters 1,Finland,M
8,Péter Hornyák,1979,81.44,83,202.5,210,215,215,142.5,150,-157.5,150,230,242.5,250,250,615,Raw,SBD,,Masters 1,Hungary,M
9,Benny Gilligan,1980,80.74,83,205,215,220,220,115,125,127.5,127.5,220,230,237.5,237.5,585,Raw,SBD,,Masters 1,Ireland,M
10,Aurélien Pilato,1981,81.68,83,202.5,212.5,217.5,217.5,117.5,125,-127.5,125,215,230,-240,230,572.5,Raw,SBD,,Masters 1,France,M
11,Alex Smale,1983,82.14,83,170,180,-187.5,180,125,-132.5,132.5,132.5,232.5,242.5,247.5,247.5,560,Raw,SBD,,Masters 1,Ireland,M
12,Peter Karacs,1977,81.58,83,177.5,192.5,197.5,197.5,145,147.5,-152.5,147.5,150,170,-190,170,515,Raw,SBD,,Masters 1,Hungary,M
13,Fredrik Fossbakk,1980,82.2,83,190,195,,195,130,135,-137.5,135,75,,,75,405,Raw,SBD,,Masters 1,Sweden,M
1,Domingo Poliandri,1983,92.88,93,240,252.5,-262.5,252.5,160,167.5,172.5,172.5,265,280,287.5,287.5,712.5,Raw,SBD,1983-02-28,Masters 1,Italy,M
2,Helge Hansen,1979,91.72,93,245,255,262.5,262.5,155,165,-170,165,265,280,-287.5,280,707.5,Raw,SBD,,Masters 1,Norway,M
3,Julien Idier,1982,92.06,93,245,-260,260,260,170,177.5,182.5,182.5,245,260,-267.5,260,702.5,Raw,SBD,,Masters 1,France,M
4,Sébastien Hupfer,1981,89.54,93,240,-255,260,260,150,160,-165,160,260,270,-277.5,270,690,Raw,SBD,,Masters 1,France,M
5,Kay Milde,1978,91.82,93,230,245,250,250,140,-145,145,145,270,290,-305,290,685,Raw,SBD,,Masters 1,Germany,M
6,Mehmet Ali Deniz,1982,91.54,93,245,-260,-260,245,150,155,157.5,157.5,260,275,-282.5,275,677.5,Raw,SBD,,Masters 1,Turkey,M
7,Eduard Moreno Curto,1983,92.5,93,225,235,-240,235,147.5,155,160,160,265,275,282.5,282.5,677.5,Raw,SBD,,Masters 1,Spain,M
8,Michele Tegon,1976,91.62,93,237.5,247.5,252.5,252.5,145,150,152.5,152.5,240,252.5,262.5,262.5,667.5,Raw,SBD,,Masters 1,UK,M
9,Mariusz Marciniak,1980,92.98,93,220,-235,235,235,180,187.5,192.5,192.5,240,-250,,240,667.5,Raw,SBD,,Masters 1,Poland,M
10,Fredrik Correa,1977,91.82,93,215,225,-230,225,155,160,-165,160,260,280,-292.5,280,665,Raw,SBD,,Masters 1,Sweden,M
11,René Ullerich,1978,92.26,93,235,247.5,-252.5,247.5,155,157.5,-162.5,157.5,260,-272.5,-272.5,260,665,Raw,SBD,,Masters 1,Germany,M
12,Thomas Celestin,1975,91.68,93,235,240,-245,240,105,110,112.5,112.5,275,290,302.5,302.5,655,Raw,SBD,,Masters 1,UK,M
13,Steven McGuire,1983,91.6,93,212.5,220,227.5,227.5,137.5,145,150,150,240,255,265,265,642.5,Raw,SBD,,Masters 1,Ireland,M
14,Enno Langelotz,1976,92.26,93,227.5,240,-245,240,157.5,165,-170,165,220,230,-240,230,635,Raw,SBD,,Masters 1,Spain,M
15,Job Zeijen,1978,91.24,93,210,220,225,225,120,130,132.5,132.5,250,-270,270,270,627.5,Raw,SBD,,Masters 1,Netherlands,M
16,Benedikt Björnsson,1978,90.98,93,220,232.5,235,235,140,-150,150,150,240,-260,-260,240,625,Raw,SBD,,Masters 1,Iceland,M
17,Yordan Deikov,1982,91.98,93,220,-232.5,232.5,232.5,-127.5,127.5,-132.5,127.5,250,260,-270,260,620,Raw,SBD,,Masters 1,Bulgaria,M
18,Richárd Kelemen,1975,90.78,93,155,165,175,175,155,160,-162.5,160,205,215,225,225,560,Raw,SBD,,Masters 1,Hungary,M
19,Josef Lipka,1976,91.54,93,185,-195,,185,140,-145,,140,235,-245,-245,235,560,Raw,SBD,,Masters 1,Czechia,M
20,Peter Paunovic,1975,92.68,93,165,-175,190,190,125,132.5,140,140,190,-210,-210,190,520,Raw,SBD,,Masters 1,Sweden,M
21,Dr Budai Balazs,1979,91.6,93,160,165,170,170,115,-120,-120,115,195,-200,200,200,485,Raw,SBD,,Masters 1,Hungary,M
1,Anthony McLeggan,1981,102,105,235,255,270,270,195,205,210,210,300,320,-335,320,800,Raw,SBD,,Masters 1,Ireland,M
2,Rene Brunner,1976,104.5,105,290,312.5,320,320,185,190,-195,190,270,290,-292.5,290,800,Raw,SBD,,Masters 1,Austria,M
3,Christian Klotz,1977,104.04,105,240,255,265,265,195,205,-212.5,205,245,260,270,270,740,Raw,SBD,,Masters 1,Austria,M
4,Marc Vandewiele,1974,103.86,105,242.5,257.5,265,265,140,147.5,-150,147.5,282.5,297.5,-315,297.5,710,Raw,SBD,,Masters 1,Belgium,M
5,Aleksi Nummi,1978,104.74,105,225,240,250,250,157.5,162.5,-167.5,162.5,255,275,-277.5,275,687.5,Raw,SBD,,Masters 1,Finland,M
6,David Carette,1981,104.34,105,210,225,230,230,150,157.5,162.5,162.5,250,270,282.5,282.5,675,Raw,SBD,,Masters 1,France,M
7,Indrek Vait,1981,102.14,105,232.5,245,250,250,137.5,145,150,150,245,262.5,272.5,272.5,672.5,Raw,SBD,,Masters 1,Estonia,M
8,Martin Šafář,1981,103.6,105,217.5,232.5,242.5,242.5,142.5,150,160,160,240,255,262.5,262.5,665,Raw,SBD,,Masters 1,Czechia,M
9,Eero Reppo,1982,104.38,105,225,240,,240,155,162.5,170,170,235,250,-257.5,250,660,Raw,SBD,,Masters 1,Estonia,M
10,Rachid Acheache,1978,103.78,105,235,250,-255,250,130,140,-142.5,140,235,250,-252.5,250,640,Raw,SBD,,Masters 1,Belgium,M
11,Ville Majava,1982,104.5,105,210,-230,-230,210,170,-180,-180,170,260,-280,-280,260,640,Raw,SBD,,Masters 1,Finland,M
12,Ronny Schroeder,1979,95.16,105,190,200,210,210,150,155,157.5,157.5,250,260,265,265,632.5,Raw,SBD,,Masters 1,Germany,M
13,Vitālijs Lukjaņenoks,1980,103.46,105,210,-220,-225,210,145,150,-155,150,240,250,262.5,262.5,622.5,Raw,SBD,,Masters 1,Latvia,M
14,Torzsa Ferenc,1981,101.94,105,195,210,-217.5,210,135,140,142.5,142.5,220,230,240,240,592.5,Raw,SBD,,Masters 1,Hungary,M
15,Horvath Laszlo,1983,103,105,180,190,195,195,132.5,137.5,142.5,142.5,200,210,217.5,217.5,555,Raw,SBD,,Masters 1,Hungary,M
DQ,Benoit Carthago,1983,96.4,105,-250,,,-250,,,,,,,,,,Raw,SBD,,Masters 1,France,M
1,Margus Silbaum,1976,108.62,120,300,315,325,325,172.5,180,185,185,300,317.5,330,330,840,Raw,SBD,,Masters 1,Estonia,M
2,Colin Power,1982,116.92,120,-285,285,302.5,302.5,190,200,205,205,290,305,-322.5,305,812.5,Raw,SBD,,Masters 1,Ireland,M
3,Miro Novaković,1983,118.66,120,260,-272.5,280,280,185,-190,-190,185,310,-320,327.5,327.5,792.5,Raw,SBD,,Masters 1,Croatia,M
4,Scott Simon #1,1974,111.62,120,260,272.5,280,280,192.5,200,205,205,270,290,305,305,790,Raw,SBD,,Masters 1,UK,M
5,Taras Tarasenko #1,1982,119.22,120,275,285,290,290,190,-200,200,200,300,-310,-310,300,790,Raw,SBD,,Masters 1,Germany,M
6,Markus Granö,1979,117.18,120,260,-280,280,280,160,165,-167.5,165,285,292.5,-302.5,292.5,737.5,Raw,SBD,,Masters 1,Finland,M
7,Vahur Mägi,1974,118.82,120,230,245,255,255,150,157.5,165,165,290,310,-325,310,730,Raw,SBD,,Masters 1,Estonia,M
8,Raúl López Cubelles,1975,119.28,120,240,-250,250,250,190,-200,200,200,280,-300,-300,280,730,Raw,SBD,,Masters 1,Spain,M
9,Olof Arvidsson,1979,119.32,120,240,-250,-250,240,167.5,172.5,-177.5,172.5,287.5,-302.5,-312.5,287.5,700,Raw,SBD,,Masters 1,Sweden,M
10,Matthias Donner,1980,119.3,120,240,250,-255,250,155,162.5,167.5,167.5,270,-285,-285,270,687.5,Raw,SBD,,Masters 1,Germany,M
11,Régis Loubidika,1979,116.84,120,225,235,-245,235,155,160,165,165,285,-295,-295,285,685,Raw,SBD,,Masters 1,France,M
12,Juha Martikainen,1975,118.86,120,230,245,250,250,160,167.5,-170,167.5,235,255,260,260,677.5,Raw,SBD,,Masters 1,Finland,M
13,Markus Steiner,1978,117.78,120,-215,215,-230,215,115,125,130,130,240,255,262.5,262.5,607.5,Raw,SBD,,Masters 1,Austria,M
14,Marcus Silvholm,1977,114.18,120,195,205,215,215,140,147.5,155,155,235,-247.5,-247.5,235,605,Raw,SBD,,Masters 1,Sweden,M
15,Yiannis Christodoulou,1977,114.32,120,215,-225,-230,215,115,122.5,-127.5,122.5,215,225,230,230,567.5,Raw,SBD,,Masters 1,Cyprus,M
1,Jesús Daniel Prieto Freire,1977,154.84,120+,340,360,370,370,-180,180,187.5,187.5,300,-315,-315,300,857.5,Raw,SBD,,Masters 1,Spain,M
2,Paul Walker #1,1979,130.58,120+,265,270,-275,270,170,177.5,182.5,182.5,270,287.5,-295,287.5,740,Raw,SBD,,Masters 1,UK,M
3,Stanislav Macák,1977,120.14,120+,240,250,260,260,170,177.5,182.5,182.5,245,260,272.5,272.5,715,Raw,SBD,,Masters 1,Czechia,M
4,Kimmo Matilainen,1982,154.04,120+,250,265,275,275,182.5,190,195,195,210,230,245,245,715,Raw,SBD,,Masters 1,Finland,M
5,Fabián Amador Rodríguez,1979,134.82,120+,235,250,-260,250,170,-180,180,180,230,240,-250,240,670,Raw,SBD,,Masters 1,Spain,M
6,Maarten Terryn,1978,136.46,120+,245,260,-265,260,170,175,-177.5,175,225,-250,-255,225,660,Raw,SBD,,Masters 1,Belgium,M
7,Marcel Benzler,1974,131.88,120+,215,230,237.5,237.5,165,180,-182.5,180,220,-240,240,240,657.5,Raw,SBD,,Masters 1,Germany,M
1,Thomas Wulffeld,1969,58.54,59,155,170,-176.5,170,80,85,90,90,200,215,225.5,225.5,485.5,Raw,SBD,,Masters 2,Sweden,M
1,Greig Murray,1971,65.52,66,155,165,172.5,172.5,115,120,122.5,122.5,222.5,230,245,245,540,Raw,SBD,,Masters 2,UK,M
2,Bernie McGurk,1968,65.92,66,170,-180,180,180,105,110,-112.5,110,-222.5,230,245,245,535,Raw,SBD,,Masters 2,UK,M
3,David Menner,1972,64.86,66,155,160,167.5,167.5,102.5,105,-107.5,105,185,190,205,205,477.5,Raw,SBD,,Masters 2,Germany,M
4,François Besnard,1971,65,66,150,160,162.5,162.5,-120,120,125,125,190,-200,-200,190,477.5,Raw,SBD,,Masters 2,France,M
5,Orosz Laszlo,1969,64.98,66,145,147.5,150,150,112.5,117.5,-122.5,117.5,190,-200,,190,457.5,Raw,SBD,,Masters 2,Hungary,M
6,Terje Myrvold,1967,65.74,66,120,130,135,135,90,97.5,-102.5,97.5,157.5,170,-177.5,170,402.5,Raw,SBD,,Masters 2,Norway,M
1,Phil Richard,1971,73.7,74,205,212.5,217.5,217.5,135,-140,140,140,210,220,225,225,582.5,Raw,SBD,,Masters 2,UK,M
2,Che Manolo Omarini,1970,73.3,74,185,195,-202.5,195,120,127.5,130,130,222.5,235,-240,235,560,Raw,SBD,,Masters 2,Italy,M
3,Christopher Dolk,1972,71.74,74,165,172.5,177.5,177.5,125,130,132.5,132.5,195,202.5,207.5,207.5,517.5,Raw,SBD,,Masters 2,Sweden,M
4,Marko Forsell,1970,73.69,74,182.5,-190,-192.5,182.5,125,130,-135,130,190,-200,-205,190,502.5,Raw,SBD,,Masters 2,Finland,M
5,Sami Siltala,1972,73.12,74,155,165,-175,165,120,125,-130,125,210,-225,-225,210,500,Raw,SBD,,Masters 2,Finland,M
6,Johny Paelinck,1970,73.3,74,172.5,180,185,185,105,110,115,115,187.5,200,-205,200,500,Raw,SBD,,Masters 2,Belgium,M
7,Vladimir Ossipov,1972,73,74,165,172.5,177.5,177.5,102.5,107.5,112.5,112.5,190,-205,-205,190,480,Raw,SBD,,Masters 2,Estonia,M
8,Varga Istvan,1968,72.84,74,130,140,-150,140,110,115,-117.5,115,190,200,-210,200,455,Raw,SBD,,Masters 2,Hungary,M
9,Veinemer Attila,1973,71.84,74,140,150,155,155,100,110,-112.5,110,165,180,-190,180,445,Raw,SBD,,Masters 2,Hungary,M
10,Ahmed Zellouf,1969,72.22,74,132.5,137.5,-142.5,137.5,105,-110,-110,105,190,200,-205,200,442.5,Raw,SBD,,Masters 2,France,M
1,Thomas Konstanty,1973,81.62,83,170,180,190,190,100,112.5,120,120,260,282.5,295.5,295.5,605.5,Raw,SBD,,Masters 2,Germany,M
2,Ficzere Tamas,1970,82.08,83,205,215,222.5,222.5,122.5,130,-135,130,225,240,252.5,252.5,605,Raw,SBD,,Masters 2,Hungary,M
3,Michael Wegerer,1970,82.9,83,160,175,185,185,145,152.5,158.5,158.5,202.5,222.5,-227.5,222.5,566,Raw,SBD,,Masters 2,Austria,M
4,George Millar,1968,81.94,83,190,200,205,205,100,105,110,110,230,245,-252.5,245,560,Raw,SBD,,Masters 2,UK,M
5,Roar Fjellet,1966,82.26,83,202.5,207.5,210,210,117.5,122.5,125,125,205,-212.5,-212.5,205,540,Raw,SBD,,Masters 2,Norway,M
6,Rudolf Kopcok,1971,81.66,83,180,195,202.5,202.5,90,95,97.5,97.5,210,220,-240,220,520,Raw,SBD,,Masters 2,Slovakia,M
7,Niclas Wisen,1969,80.94,83,170,175,180,180,140,145,-152.5,145,190,-200,-200,190,515,Raw,SBD,,Masters 2,Sweden,M
8,Georges Mingot,1964,82.5,83,177.5,185,-190,185,127.5,132.5,-137.5,132.5,190,-202.5,-202.5,190,507.5,Raw,SBD,,Masters 2,France,M
9,Olivier Lagardere,1967,81.78,83,160,167.5,-172.5,167.5,110,117.5,-125,117.5,160,-175,175,175,460,Raw,SBD,,Masters 2,France,M
10,Vebjørn Brastad,1970,82.18,83,135,142.5,147.5,147.5,102.5,107.5,-112.5,107.5,170,180,-185,180,435,Raw,SBD,,Masters 2,Norway,M
11,Tanacs Janos,1969,82.66,83,80,85,-90,85,80,87.5,-92.5,87.5,165,175,187.5,187.5,360,Raw,SBD,,Masters 2,Hungary,M
1,Miklós Fekete,1973,92.26,93,235,250,260,260,170.5,178,183,183,270,287.5,292.5,292.5,735.5,Raw,SBD,1973-01-02,Masters 2,Hungary,M
2,Robert Rodney,1964,90.62,93,200,207.5,212.5,212.5,120,127.5,132.5,132.5,250,270,-287.5,270,615,Raw,SBD,,Masters 2,UK,M
3,Warren Yelverton,1973,91.58,93,195,202.5,-210,202.5,145,152.5,155,155,240,257.5,-270,257.5,615,Raw,SBD,,Masters 2,Ireland,M
4,Vesa Kovalainen,1971,92.74,93,220,-230,-230,220,125,127.5,-130,127.5,240,250,-270,250,597.5,Raw,SBD,,Masters 2,Finland,M
5,Sami Teeri,1972,91.64,93,205,-212.5,-212.5,205,130,135,137.5,137.5,235,-242.5,-242.5,235,577.5,Raw,SBD,,Masters 2,Finland,M
6,Andreas Mouzouras,1973,91.3,93,207.5,217.5,220,220,115,125,135,135,165,182.5,195,195,550,Raw,SBD,,Masters 2,Cyprus,M
7,Valentin Moldovan,1972,90.98,93,-185,-185,185,185,117.5,122.5,-125,122.5,200,215,-220,215,522.5,Raw,SBD,,Masters 2,Spain,M
8,Lars Rudin,1971,91.18,93,175,182.5,190,190,102.5,107.5,110,110,190,205,215,215,515,Raw,SBD,,Masters 2,Sweden,M
9,Otis Claeys,1971,92.42,93,140,150,-160,150,100,105,107.5,107.5,180,187.5,192.5,192.5,450,Raw,SBD,,Masters 2,Luxembourg,M
1,Pjotr van den Hoek,1972,104.68,105,266,281,-291,281,180,185,190,190,265,275,285,285,756,Raw,SBD,,Masters 2,Netherlands,M
2,Domenico Zaino,1969,103.78,105,-230,235,-250,235,150,160,170,170,265,275,-285,275,680,Raw,SBD,,Masters 2,Italy,M
3,Nicolás Carrasquel Hernández,1970,103.6,105,215,227.5,232.5,232.5,155,165,170,170,250,265,-277.5,265,667.5,Raw,SBD,,Masters 2,Spain,M
4,Pasi Putkonen,1971,104.34,105,205,220,225,225,170,177.5,-185.5,177.5,230,242.5,250,250,652.5,Raw,SBD,,Masters 2,Finland,M
5,Christopher Lynn,1969,103.08,105,230,240,245,245,125,132.5,135,135,260,-275,-275,260,640,Raw,SBD,,Masters 2,UK,M
6,Henrik Smedmark,1967,104,105,200,-207.5,-207.5,200,130,137.5,-142.5,137.5,230,240,-247.5,240,577.5,Raw,SBD,,Masters 2,Sweden,M
7,Oleksandr Sharov,1964,103.36,105,200,210,215,215,150,-157.5,-160,150,200,210,-220,210,575,Raw,SBD,,Masters 2,Germany,M
8,Kaj Wasenius,1972,103.54,105,182.5,197.5,-200,197.5,120,130,-140,130,210,220,230,230,557.5,Raw,SBD,,Masters 2,Finland,M
9,Hinrik Pálsson,1973,103.72,105,165,177.5,185,185,147.5,155,162.5,162.5,185,195,202.5,202.5,550,Raw,SBD,,Masters 2,Iceland,M
10,Ove Fosse,1968,102.54,105,-192.5,192.5,-205,192.5,110,120,-125,120,200,225,-227.5,225,537.5,Raw,SBD,,Masters 2,Norway,M
11,Panagiotis Koutentis,1969,102.2,105,145,155,160,160,145,152.5,-157.5,152.5,162.5,175,180,180,492.5,Raw,SBD,,Masters 2,Cyprus,M
DQ,Fadi Gantous Zacharia,1970,103.52,105,210,-220,-222.5,210,127.5,135,-140,135,-250,-260,-260,-250,,Raw,SBD,,Masters 2,France,M
DQ,Eduardo Prada Jiménez,1970,103.98,105,200,212.5,-220,212.5,-132.5,-137.5,-137.5,-132.5,230,-242.5,-245,230,,Raw,SBD,,Masters 2,Spain,M
1,Frode Rui,1969,117.86,120,-245,250,262.5,262.5,165,170,-172.5,170,275,301.5,302.5,302.5,735,Raw,SBD,,Masters 2,Norway,M
2,Saša Cvetković,1970,119.04,120,242.5,267.5,287,287,145,152.5,-160,152.5,257.5,282.5,295,295,734.5,Raw,SBD,,Masters 2,Serbia,M
3,Karel Rada #1,1973,111.56,120,255,267.5,-275,267.5,160,167.5,172.5,172.5,260,277.5,-290,277.5,717.5,Raw,SBD,,Masters 2,Czechia,M
4,Derek Forsyth,1972,118.9,120,240,-255,-265,240,170,175,177.5,177.5,277.5,285,-292.5,285,702.5,Raw,SBD,,Masters 2,UK,M
5,Ronny Andersen,1964,119.64,120,215,225,230,230,162.5,170,175,175,252.5,265,-270,265,670,Raw,SBD,,Masters 2,Norway,M
6,Dave Worrall,1972,118.8,120,225,-240,-240,225,160,165,170,170,240,252.5,260,260,655,Raw,SBD,,Masters 2,Ireland,M
7,Jean-Michel Denis,1971,117.62,120,205,220,232.5,232.5,130,140,145,145,230,250,-262.5,250,627.5,Raw,SBD,,Masters 2,France,M
8,David Charnock,1964,113.22,120,200,-215,220,220,127.5,135,142.5,142.5,230,245,250,250,612.5,Raw,SBD,,Masters 2,UK,M
9,Jens Lund Tvilling Vinther,1965,119,120,192.5,-202.5,-210,192.5,140,147.5,152.5,152.5,245,255,260,260,605,Raw,SBD,,Masters 2,Denmark,M
10,Nicklas Karlsson,1969,109.8,120,195,-205,-205,195,167.5,172.5,-177.5,172.5,200,215,230,230,597.5,Raw,SBD,,Masters 2,Sweden,M
11,Udo Ahlvers,1972,118.9,120,175,190,200,200,135,142.5,147.5,147.5,195,215,225,225,572.5,Raw,SBD,,Masters 2,Germany,M
12,Zsoldos Peter,1969,107.34,120,170,180,190,190,90,100,-105,100,180,200,-205,200,490,Raw,SBD,,Masters 2,Hungary,M
DD,Thomas Schmidt,1970,129.66,120+,-250,255,270,270,155,165,170,170,260,280,295,295,,Raw,SBD,,Masters 2,Germany,M
1,Riad Sollien,1970,139.88,120+,235,252.5,257.5,257.5,162.5,170,172.5,172.5,280,-290,292.5,292.5,722.5,Raw,SBD,,Masters 2,Norway,M
2,Wim Wamsteeker,1969,132.64,120+,220,227.5,,227.5,125,130,132.5,132.5,240,-252.5,-252.5,240,600,Raw,SBD,,Masters 2,Netherlands,M
3,Marc Bey,1970,145.1,120+,-200,200,-210,200,140,145,-150,145,255,-270,-270,255,600,Raw,SBD,,Masters 2,France,M
1,Štefan Koľšovský,1961,58.54,59,140,145,147,147,100,105,-108,105,-145,-145,145,145,397,Raw,SBD,,Masters 3,Slovakia,M
1,Rafael López Cabello,1958,65.26,66,-160,160,-170,160,75,80,82.5,82.5,190,200,,200,442.5,Raw,SBD,,Masters 3,Spain,M
2,Ireneusz Franusik,1963,65.62,66,145,150,-168.5,150,70,85,92.5,92.5,155,165,-170,165,407.5,Raw,SBD,,Masters 3,Poland,M
3,Philippe Rouge,1957,63.74,66,110,115,120,120,80,85,87.5,87.5,130,140,145,145,352.5,Raw,SBD,,Masters 3,France,M
1,Fernando Jimenez Ortega,1961,71.96,74,180,202.5,-207.5,202.5,120,133,,133,200,210,220,220,555.5,Raw,SBD,,Masters 3,Spain,M
2,Allen Ottolangui,1960,73.68,74,165,175,-180,175,85,90,92.5,92.5,170,185,190,190,457.5,Raw,SBD,,Masters 3,UK,M
3,Anton Mihok,1957,73.24,74,-150,-150,150,150,117.5,122.5,125,125,170,180,-185,180,455,Raw,SBD,,Masters 3,Slovakia,M
4,Ismo Hietanen,1963,72.28,74,140,150,152.5,152.5,110,115,-117.5,115,172.5,185,-192.5,185,452.5,Raw,SBD,,Masters 3,Finland,M
5,Hordur Birkirsson,1958,72.72,74,160,170,-175,170,80,92.5,102.5,102.5,-180,-180,180,180,452.5,Raw,SBD,,Masters 3,Iceland,M
6,Daniel Jouannic,1960,73.06,74,142.5,150,,150,97.5,-102.5,-102.5,97.5,160,172.5,177.5,177.5,425,Raw,SBD,,Masters 3,France,M
7,Michel Bertrand,1957,73.02,74,150,157.5,-162.5,157.5,85,-87.5,-87.5,85,160,-167.5,,160,402.5,Raw,SBD,,Masters 3,Belgium,M
1,Francesco Morese,1962,82.36,83,195,210,-215,210,127.5,132.5,137.5,137.5,235,260.5,,260.5,608,Raw,SBD,,Masters 3,Italy,M
2,Grant Sugarman,1962,80,83,165,175,-180,175,110,-115,-115,110,220,230,-240,230,515,Raw,SBD,,Masters 3,UK,M
3,Marian Cofalik,1956,79.88,83,-180,180,-190,180,85,-90,-90,85,200,210,-215,210,475,Raw,SBD,,Masters 3,Poland,M
4,Régis Gautier,1956,82.38,83,140,145,-147.5,145,95,100,,100,205,-212.5,212.5,212.5,457.5,Raw,SBD,,Masters 3,France,M
5,Pierrick Le Berre,1959,82.08,83,-152.5,-152.5,152.5,152.5,105,110,-115,110,187.5,-202.5,-202.5,187.5,450,Raw,SBD,,Masters 3,France,M
6,Tomas Ring,1960,82.92,83,130,140,,140,130,135,140,140,130,140,,140,420,Raw,SBD,,Masters 3,Sweden,M
1,Józef Gromek,1958,90.24,93,210,-225,-225,210,125,132.5,137.5,137.5,230,240,,240,587.5,Raw,SBD,,Masters 3,Poland,M
2,Ángel Luis Pajuelo Muñoz,1961,92.18,93,187.5,-197.5,200,200,-125,137.5,-142.5,137.5,225,235,237.5,237.5,575,Raw,SBD,,Masters 3,Spain,M
3,Harri Hagfors,1961,92.8,93,-182.5,190,195,195,-115,115,120,120,225,232.5,237.5,237.5,552.5,Raw,SBD,,Masters 3,Finland,M
4,Peer Haensicke,1961,91.82,93,190,200,-205,200,145,-152.5,-152.5,145,190,200,205,205,550,Raw,SBD,,Masters 3,Germany,M
5,Ismo Karisalo,1961,89.76,93,175,190,195,195,120,127.5,130,130,195,207.5,215,215,540,Raw,SBD,,Masters 3,Finland,M
6,Aleš Vrzák,1957,92.28,93,140,150,157.5,157.5,100,-110,-110,100,195,-205,-205,195,452.5,Raw,SBD,,Masters 3,Czechia,M
DQ,Gemel Boughamdouz,1963,87.8,93,-185,-185,-185,-185,120,130,140,140,180,190,,190,,Raw,SBD,,Masters 3,France,M
1,Maurizio Buscarini,1962,103.1,105,-225,225,-238,225,110,120,125,125,255,273,280.5,280.5,630.5,Raw,SBD,,Masters 3,Italy,M
2,Frans van der Putten,1962,102.44,105,210,220,225,225,170,182.5,-187.5,182.5,200,215,222.5,222.5,630,Raw,SBD,,Masters 3,Netherlands,M
3,Jiří Psota,1962,103.44,105,190,210,220,220,150,157.5,-162.5,157.5,220,230,235,235,612.5,Raw,SBD,,Masters 3,Czechia,M
4,Jari Niskanen,1963,104.6,105,195,202.5,-207.5,202.5,137.5,142.5,145,145,245,-252.5,-267.5,245,592.5,Raw,SBD,,Masters 3,Finland,M
5,Vladimír Turtev,1962,102.91,105,190,197.5,205,205,140,145,-147.5,145,215,222.5,232.5,232.5,582.5,Raw,SBD,,Masters 3,Czechia,M
6,Ladislav Horny,1959,104.2,105,200,210,215,215,137.5,145,150,150,207.5,217.5,-225,217.5,582.5,Raw,SBD,,Masters 3,Slovakia,M
DQ,Franz Huemer,1963,103.6,105,185,192.5,-197.5,192.5,157.5,-162.5,-162.5,157.5,-225,-225,-225,-225,,Raw,SBD,,Masters 3,Austria,M
1,Zoltán Kanát,1962,116.1,120,256,263,269,269,160,165,-167.5,165,265,275,-283,275,709,Raw,SBD,,Masters 3,Czechia,M
2,Mark Notschaele,1963,118,120,230,237.5,-240,237.5,150,157.5,162.5,162.5,235,245,-250,245,645,Raw,SBD,,Masters 3,Luxembourg,M
DQ,Jean-Claude Pinat,1963,114,120,-220,-220,-220,-220,130,145,155,155,240,250,252.5,252.5,,Raw,SBD,,Masters 3,France,M
1,Ryszard Wszoła,1962,125.55,120+,245,-260,260,260,130,140,147.5,147.5,260,285.5,300,300,707.5,Raw,SBD,,Masters 3,Poland,M
2,Aleksandrs Kacevics,1963,127.85,120+,200,212.5,220,220,140,147.5,-152.5,147.5,240,250,260,260,627.5,Raw,SBD,,Masters 3,Latvia,M
3,Guenther Haberfellner,1962,124.16,120+,140,150,162.5,162.5,105,112.5,117.5,117.5,-170,177.5,-187.5,177.5,457.5,Raw,SBD,,Masters 3,Austria,M
4,John O'Dwyer,1955,123.8,120+,120,-140,-162.5,120,140,147.5,152.5,152.5,120,150,-185,150,422.5,Raw,SBD,,Masters 3,Ireland,M
1,Milan Gombár,1948,56.34,59,110,125,130,130,70,75,77.5,77.5,170,-182.5,-182.5,170,377.5,Raw,SBD,,Masters 4,Slovakia,M
2,Pierre Colombet,1950,57.98,59,-85,85,-87.5,85,62.5,-65,-65,62.5,100,107.5,117.5,117.5,265,Raw,SBD,,Masters 4,France,M
1,Pavel Valenta,1953,72.06,74,145,157.5,-162.5,157.5,85,90,-92.5,90,170,177.5,-182.5,177.5,425,Raw,SBD,,Masters 4,Czechia,M
2,Günter Runniger,1952,73.06,74,135,140,-145,140,85,90,92.5,92.5,172.5,185,-190,185,417.5,Raw,SBD,,Masters 4,Germany,M
3,Jean-Yves Marion,1952,72.44,74,125,130,-135,130,80,-85,-85,80,155,160,165,165,375,Raw,SBD,,Masters 4,France,M
1,Roger Remy,1953,78.38,83,110,120,130,130,90,95,100,100,175,187.5,195,195,425,Raw,SBD,,Masters 4,Belgium,M
2,Terje Wang,1946,74.92,83,100,107.5,112.5,112.5,80,-85,85,85,125,135,142.5,142.5,340,Raw,SBD,,Masters 4,Norway,M
1,Josef Ptáček,1953,91.88,93,-150,150,-155,150,110,115,117.5,117.5,-157.5,157.5,162.5,162.5,430,Raw,SBD,,Masters 4,Czechia,M
2,Sava Vasiljevski,1950,91.2,93,130,142.5,150,150,65,75,80,80,160,180,-202.5,180,410,Raw,SBD,,Masters 4,Serbia,M
3,Tapani Puhakka,1944,85.68,93,65,75,82.5,82.5,75,80,-85,80,140,-150,157.5,157.5,320,Raw,SBD,,Masters 4,Finland,M
1,Christian Delpieu,1951,94.52,105,-160,160,-170,160,100,-105,105,105,170,182.5,190,190,455,Raw,SBD,,Masters 4,France,M
2,Jean-Paul Belmas,1949,100.12,105,150,167.5,-175,167.5,87.5,-92.5,-92.5,87.5,165,180,-187.5,180,435,Raw,SBD,,Masters 4,France,M
3,Václav Primus,1948,95.06,105,-85,90,-100,90,75,80,-92.5,80,140,152.5,160,160,330,Raw,SBD,,Masters 4,Czechia,M
1,Reiner Katzula,1953,117.7,120,190,200,205,205,140,145,147.5,147.5,200,205,210,210,562.5,Raw,SBD,,Masters 4,Germany,M
2,Toivo Kyllönen,1952,115.24,120,150,165,-177.5,165,75,80,,80,185,-207.5,-210.5,185,430,Raw,SBD,,Masters 4,Finland,M
