Division,WeightClassKg,Place,Name,Team,BodyweightKg,Best3SquatKg,Best3BenchKg,Best3DeadliftKg,TotalKg,Equipment,Event,Sex
Boys,51.71,1,Mainglee Bou,Fort Worth Paschal,47.9,111.13,58.97,136.08,306.17,Single-ply,SBD,M
Boys,51.71,2,Lachlyn McFee,Granbury,51.44,102.06,68.04,113.4,283.5,Single-ply,SBD,M
Boys,55.79,3,Kaden Herbert,Weatherford,51.8,108.86,54.43,115.67,278.96,Single-ply,SBD,M
Boys,51.71,4,Alonzo Owens,Fort Worth Boswell,50.53,111.13,52.16,104.33,267.62,Single-ply,SBD,M
Boys,55.79,1,Arnold Delgadillo,White Settlement Brewer,55.34,136.08,97.52,170.1,403.7,Single-ply,SBD,M
Boys,55.79,2,Felipe Hernández #5,Saginaw,54.52,129.27,79.38,145.15,353.8,Single-ply,SBD,M
Boys,55.79,3,Dakota Hutson,Azle,52.8,140.61,72.57,138.35,351.53,Single-ply,SBD,M
Boys,55.79,4,Tin Nguyen #2,Weatherford,55.52,131.54,56.7,122.47,310.71,Single-ply,SBD,M
Boys,59.87,5,Chandler Reeves,Fort Worth Boswell,55.97,111.13,63.5,120.2,294.84,Single-ply,SBD,M
Boys,55.79,6,Arlind Queriman,Aledo,52.16,111.13,56.7,124.74,292.57,Single-ply,SBD,M
Boys,55.79,7,Logan Lopez,Aledo,53.16,102.06,58.97,120.2,281.23,Single-ply,SBD,M
Boys,59.87,8,Dutch Patterson,Fort Worth Boswell,55.97,95.25,58.97,115.67,269.89,Single-ply,SBD,M
Boys,55.79,9,Alex Bush,Aledo,52.98,86.18,54.43,97.52,238.14,Single-ply,SBD,M
Boys,55.79,DQ,Ryan Randall,Azle,54.7,113.4,,,,Single-ply,SBD,M
Boys,59.87,1,Daniel Rodriguez #12,Fort Worth Paschal,59.69,170.1,70.31,181.44,421.84,Single-ply,SBD,M
Boys,59.87,2,Melvin Johnson,Fort Worth Chisholm Trail,59.24,124.74,86.18,158.76,369.68,Single-ply,SBD,M
Boys,67.13,3,Jacob Tallant,Azle,60.06,138.35,70.31,145.15,353.8,Single-ply,SBD,M
Boys,59.87,4,Caleb Salazar,Fort Worth Boswell,58.33,124.74,79.38,136.08,340.19,Single-ply,SBD,M
Boys,59.87,5,Montana Marquez,Weatherford,58.15,122.47,63.5,124.74,310.71,Single-ply,SBD,M
Boys,59.87,6,Will Bertram,Aledo,58.33,95.25,72.57,120.2,288.03,Single-ply,SBD,M
Boys,59.87,DQ,Brayden Brown,Granbury,59.87,,,,,Single-ply,SBD,M
Boys,67.13,1,Matt Blakely,Saginaw,66.22,151.95,92.99,185.97,430.91,Single-ply,SBD,M
Boys,67.13,2,Hayden Ekas,Weatherford,67.13,151.95,88.45,172.37,412.77,Single-ply,SBD,M
Boys,67.13,3,Tyler Sutton,White Settlement Brewer,60.24,151.95,102.06,151.95,405.97,Single-ply,SBD,M
Boys,67.13,4,Jordan McNeely,Azle,66.09,147.42,83.91,163.29,394.63,Single-ply,SBD,M
Boys,67.13,5,Gabriel García,Fort Worth Boswell,66.59,145.15,81.65,154.22,381.02,Single-ply,SBD,M
Boys,67.13,6,Austin Chenault,Springtown,60.6,136.08,79.38,147.42,362.87,Single-ply,SBD,M
Boys,67.13,DQ,Devin Larry,Fort Worth Chisholm Trail,66.95,,,,,Single-ply,SBD,M
Boys,74.84,1,Chase Smith,Azle,73.8,195.04,102.06,204.12,501.22,Single-ply,SBD,M
Boys,74.84,2,Trent Melton,Granbury,74.03,208.65,90.72,195.04,494.42,Single-ply,SBD,M
Boys,74.84,3,Jeremy Chote,White Settlement Brewer,74.48,170.1,122.47,188.24,480.81,Single-ply,SBD,M
Boys,74.84,4,Jarrod Nelson,Springtown,74.57,185.97,106.59,188.24,480.81,Single-ply,SBD,M
Boys,74.84,5,Isaiah Washington,Everman,72.67,195.04,95.25,176.9,467.2,Single-ply,SBD,M
Boys,82.1,6,Justin Bratten,Fort Worth Boswell,75.02,167.83,92.99,190.51,451.32,Single-ply,SBD,M
Boys,74.84,7,David Gain,Fort Worth Chisholm Trail,72.76,174.63,88.45,185.97,449.06,Single-ply,SBD,M
Boys,74.84,8,Jamorian Primus,Everman,73.53,204.12,81.65,158.76,444.52,Single-ply,SBD,M
Boys,74.84,9,Carson McCone,Aledo,74.66,154.22,86.18,176.9,417.3,Single-ply,SBD,M
Boys,74.84,10,Scotty Pryor,Granbury,67.59,151.95,104.33,142.88,399.16,Single-ply,SBD,M
Boys,74.84,11,Dominique Orozco,Saginaw,70.76,129.27,92.99,170.1,392.36,Single-ply,SBD,M
Boys,74.84,12,Dylan Boutwell,Aledo,74.12,142.88,86.18,158.76,387.82,Single-ply,SBD,M
Boys,74.84,13,Ezekiel Plata,Saginaw,71.12,142.88,88.45,149.69,381.02,Single-ply,SBD,M
Boys,74.84,14,Omar Lopez,Springtown,68.22,124.74,92.99,147.42,365.14,Single-ply,SBD,M
Boys,74.84,DQ,Jesse Valdez,Granbury,73.57,192.78,104.33,,,Single-ply,SBD,M
Boys,74.84,DQ,Cody Gentry,White Settlement Brewer,73.21,,,,,Single-ply,SBD,M
Boys,82.1,1,Gage McQuade,Fort Worth Boswell,80.47,229.06,138.35,217.72,585.13,Single-ply,SBD,M
Boys,82.1,2,Robert Carper,Weatherford,79.56,219.99,122.47,217.72,560.19,Single-ply,SBD,M
Boys,82.1,3,James Worthy,Everman,81.51,226.8,117.93,208.65,553.38,Single-ply,SBD,M
Boys,89.81,4,Daniel Valdez,Granbury,82.28,222.26,108.86,222.26,553.38,Single-ply,SBD,M
Boys,82.1,5,Colby Benton,White Settlement Brewer,81.65,204.12,115.67,226.8,546.58,Single-ply,SBD,M
Boys,82.1,6,Chris Hammonds,Saginaw,79.92,195.04,113.4,188.24,496.68,Single-ply,SBD,M
Boys,82.1,7,Braden Robertson,Weatherford,75.39,188.24,120.2,185.97,494.42,Single-ply,SBD,M
Boys,82.1,8,Justin Livingston,Weatherford,79.83,181.44,102.06,197.31,480.81,Single-ply,SBD,M
Boys,82.1,9,Tyson McDaniel,Fort Worth Chisholm Trail,76.38,174.63,104.33,176.9,455.86,Single-ply,SBD,M
Boys,82.1,10,Brandon Santos,Springtown,77.43,151.95,104.33,181.44,437.72,Single-ply,SBD,M
Boys,82.1,11,Barrett Tedder,Springtown,76.29,167.83,88.45,174.63,430.91,Single-ply,SBD,M
Boys,82.1,12,Sedarian Childers,Fort Worth Chisholm Trail,76.11,149.69,106.59,163.29,419.57,Single-ply,SBD,M
Boys,89.81,1,Khaemon Edwards,Everman,87.91,231.33,142.88,213.19,587.4,Single-ply,SBD,M
Boys,89.81,2,Damian Hernandez,White Settlement Brewer,87.04,199.58,133.81,213.19,546.58,Single-ply,SBD,M
Boys,89.81,3,Zach Mohr,Weatherford,83.05,201.85,122.47,215.46,539.77,Single-ply,SBD,M
Boys,89.81,4,Hunter Pettis,Azle,88.31,197.31,129.27,201.85,528.44,Single-ply,SBD,M
Boys,89.81,5,Jake Bearid,Weatherford,88.86,213.19,102.06,199.58,514.83,Single-ply,SBD,M
Boys,89.81,6,Matthew McCartney,Aledo,82.37,197.31,108.86,192.78,498.95,Single-ply,SBD,M
Boys,89.81,7,Luiz Hernandez,Granbury,87.68,188.24,86.18,183.7,458.13,Single-ply,SBD,M
Boys,89.81,8,John Molinar,White Settlement Brewer,88.77,174.63,102.06,165.56,442.25,Single-ply,SBD,M
Boys,89.81,9,Devin Buckner,Saginaw,88.68,158.76,102.06,167.83,428.64,Single-ply,SBD,M
Boys,89.81,10,Guillermo Pando,Springtown,85.68,163.29,95.25,163.29,421.84,Single-ply,SBD,M
Boys,89.81,11,Jason Lohmer,Aledo,88.5,136.08,88.45,161.03,385.55,Single-ply,SBD,M
Boys,89.81,DQ,Drake Sanders,Granbury,83.91,156.49,,,,Single-ply,SBD,M
Boys,89.81,DQ,Emmanuel Butler,Fort Worth Chisholm Trail,88.63,170.1,,,,Single-ply,SBD,M
Boys,89.81,DQ,TK Powell,Fort Worth Chisholm Trail,83.91,,,,,Single-ply,SBD,M
Boys,89.81,DQ,Jaytron Phillips,Fort Worth Chisholm Trail,86.27,,,,,Single-ply,SBD,M
Boys,99.79,1,Cole Stewart,Aledo,95.98,226.8,151.95,254.01,632.76,Single-ply,SBD,M
Boys,99.79,2,Nathan Badillo,Saginaw,98.88,210.92,133.81,217.72,562.45,Single-ply,SBD,M
Boys,99.79,3,Ruben Perez,Azle,90.36,190.51,124.74,195.04,510.29,Single-ply,SBD,M
Boys,99.79,4,Dereck Mayweather,Fort Worth Chisholm Trail,90.9,181.44,113.4,204.12,498.95,Single-ply,SBD,M
Boys,99.79,5,Al Kankam,Saginaw,98.07,210.92,108.86,176.9,496.68,Single-ply,SBD,M
Boys,99.79,6,Derrick Jones,White Settlement Brewer,93.8,179.17,111.13,197.31,487.61,Single-ply,SBD,M
Boys,99.79,7,Keelen Ellison,Granbury,92.4,170.1,95.25,183.7,449.06,Single-ply,SBD,M
Boys,99.79,8,Cameron Bean,Aledo,96.57,154.22,99.79,163.29,417.3,Single-ply,SBD,M
Boys,99.79,DQ,Martin Medina,Springtown,97.84,204.12,117.93,226.8,,Single-ply,SBD,M
Boys,109.77,1,Tristian Raymond,Weatherford,106.46,235.87,147.42,210.92,594.21,Single-ply,SBD,M
Boys,109.77,2,Drew Smith,Azle,107.18,242.67,122.47,204.12,569.26,Single-ply,SBD,M
Boys,109.77,3,Fernando Monreal,White Settlement Brewer,107.23,208.65,136.08,188.24,532.97,Single-ply,SBD,M
Boys,109.77,4,Raul Sandoval,Granbury,106.28,190.51,124.74,188.24,503.49,Single-ply,SBD,M
Boys,109.77,5,Matt Cayea,Fort Worth Boswell,109.72,188.24,95.25,185.97,469.47,Single-ply,SBD,M
Boys,109.77,6,Gilbert Cortinas,Saginaw,106.59,147.42,92.99,151.95,392.36,Single-ply,SBD,M
Boys,109.77,DQ,Christopher Reyes,Fort Worth Paschal,107.18,233.6,147.42,,,Single-ply,SBD,M
Boys,109.77,DQ,Justin Scarbro,Azle,109.23,285.76,181.44,,,Single-ply,SBD,M
Boys,124.74,1,Justin Watson #1,Fort Worth Boswell,119.39,260.82,136.08,217.72,614.62,Single-ply,SBD,M
Boys,124.74+,2,Jake Allsbrooks,Fort Worth Boswell,124.87,272.16,122.47,206.38,601.01,Single-ply,SBD,M
Boys,124.74,3,Jesse Springfield,Springtown,121.38,240.4,131.54,213.19,585.13,Single-ply,SBD,M
Boys,124.74,4,Jesse Roden,Weatherford,111.58,215.46,131.54,206.38,553.38,Single-ply,SBD,M
Boys,124.74,5,Kade Griffin,Azle,116.8,226.8,122.47,195.04,544.31,Single-ply,SBD,M
Boys,124.74,6,Chase Slack,Azle,121.97,199.58,108.86,188.24,496.68,Single-ply,SBD,M
Boys,124.74,7,Amador Chavez,Saginaw,111.99,176.9,115.67,181.44,474,Single-ply,SBD,M
Boys,124.74,8,Jared Luth,Saginaw,120.29,181.44,108.86,165.56,455.86,Single-ply,SBD,M
Boys,124.74,9,Michael Ward,Springtown,121.2,183.7,90.72,176.9,451.32,Single-ply,SBD,M
Boys,124.74,DQ,George Molinar,Aledo,110.72,181.44,,,,Single-ply,SBD,M
Boys,124.74+,1,Dominic Hill #2,Fort Worth Boswell,127.19,324.32,197.31,278.96,800.59,Single-ply,SBD,M
Boys,124.74+,2,Joey Stephens,Everman,140.89,272.16,170.1,226.8,669.05,Single-ply,SBD,M
Boys,124.74+,3,Jacob Lance,Azle,152.54,294.84,151.95,188.24,635.03,Single-ply,SBD,M
Boys,124.74+,4,Joey Saladino,Fort Worth Chisholm Trail,130,251.74,140.61,215.46,607.81,Single-ply,SBD,M
Boys,124.74+,5,Taylor Bitters,White Settlement Brewer,131.09,254.01,111.13,226.8,591.94,Single-ply,SBD,M
Boys,124.74+,6,Tariq Henderson,Fort Worth Paschal,133.99,278.96,124.74,183.7,587.4,Single-ply,SBD,M
Boys,124.74+,7,Fernando Sanchez,Granbury,128,199.58,129.27,206.38,535.24,Single-ply,SBD,M
Boys,124.74+,8,Rejay Ioanis,Fort Worth Boswell,129,192.78,92.99,181.44,467.2,Single-ply,SBD,M
Boys,124.74+,DQ,Dhillon Suraj,Fort Worth Paschal,129.86,249.48,,,,Single-ply,SBD,M
Boys,124.74+,DQ,Dusty Seely,White Settlement Brewer,126.37,242.67,,,,Single-ply,SBD,M
