Division,WeightClassKg,Place,Name,Team,BodyweightKg,Best3SquatKg,Best3BenchKg,Best3DeadliftKg,TotalKg,Equipment,Event,Sex,BirthDate
Boys,55.79,1,Jorge Garcia,League City Clear Creek,55.79,140.61,77.11,142.88,360.61,Unlimited,SBD,M,
Boys,55.79,2,Austin Vincent,La Porte,55.34,92.99,72.57,102.06,267.62,Unlimited,SBD,M,
Boys,55.79,3,Jagger Ramirez,La Porte,54.43,58.97,56.7,97.52,213.19,Unlimited,SBD,M,
Boys,67.13,1,Corey Wilson,League City Clear Creek,66.68,142.88,79.38,142.88,365.14,Unlimited,SBD,M,
Boys,67.13,2,Herrera Gilberto,Pasadena Dobie,64.73,122.47,88.45,142.88,353.8,Unlimited,SBD,M,
Boys,67.13,3,Elijah Wicker,La Porte,66.22,92.99,83.91,133.81,310.71,Unlimited,SBD,M,
Boys,67.13,DQ,Julian Rivera,Pearland Dawson,61.69,,,,,Unlimited,SBD,M,
Boys,74.84,1,Matthew Gobert,League City Clear Creek,73.94,195.04,115.67,215.46,526.17,Unlimited,SBD,M,
Boys,74.84,2,Raymond Gibbs,La Porte,72.57,185.97,106.59,210.92,503.49,Unlimited,SBD,M,
Boys,74.84,3,Dehvin Frank,La Porte,71.21,161.03,95.25,204.12,460.4,Unlimited,SBD,M,
Boys,74.84,4,David Contreras,Pasadena Dobie,72.57,183.7,92.99,174.63,451.32,Unlimited,SBD,M,
Boys,74.84,5,Noah Martinez,League City Clear Creek,72.57,151.95,88.45,158.76,399.16,Unlimited,SBD,M,
Boys,74.84,6,Evan Hoffman,Pearland Dawson,70.76,142.88,83.91,142.88,369.68,Unlimited,SBD,M,
Boys,74.84,DQ,Alex Sanchez,Pearland Dawson,71.67,,,,,Unlimited,SBD,M,
Boys,82.1,1,Da'Shaun Smith,League City Clear Creek,81.19,163.29,92.99,210.92,467.2,Unlimited,SBD,M,
Boys,82.1,2,Drew Pugh,Pearland Dawson,82.1,167.83,95.25,192.78,455.86,Unlimited,SBD,M,
Boys,82.1,3,Josue Lopez,La Porte,78.93,149.69,104.33,149.69,403.7,Unlimited,SBD,M,
Boys,89.81,1,Tommy Sanchez,La Porte,88.9,179.17,127.01,206.38,512.56,Unlimited,SBD,M,
Boys,89.81,2,Kaiden Richardson,League City Clear Creek,85.28,192.78,129.27,185.97,508.02,Unlimited,SBD,M,
Boys,89.81,3,Walker Smith,League City Clear Creek,87.09,156.49,99.79,156.49,412.77,Unlimited,SBD,M,
Boys,89.81,4,Zavier Silva,La Porte,87.54,145.15,106.59,154.22,405.97,Unlimited,SBD,M,
Boys,89.81,5,Blake Collins,League City Clear Creek,87.54,136.08,70.31,138.35,344.73,Unlimited,SBD,M,
Boys,89.81,DQ,Xzavier Aguirre,La Porte,85.28,,,,,Unlimited,SBD,M,
Boys,89.81,DQ,Tayton Self,La Porte,88.45,,,,,Unlimited,SBD,M,
Boys,99.79,1,Bransen Shanley,La Porte,95.25,199.58,136.08,206.38,542.04,Unlimited,SBD,M,
Boys,99.79,2,Jesse Santa-Cruz,La Porte,96.62,167.83,111.13,192.78,471.74,Unlimited,SBD,M,
Boys,99.79,3,Alexander Salguero,Pasadena Dobie,91.63,158.76,104.33,174.63,437.72,Unlimited,SBD,M,
Boys,99.79,4,Dylan Wagner,Pearland Dawson,92.08,161.03,79.38,170.1,410.5,Unlimited,SBD,M,
Boys,99.79,5,Ethan Pereida,La Porte,97.52,133.81,120.2,145.15,399.16,Unlimited,SBD,M,
Boys,99.79,6,Tyler Henry,Pearland Dawson,99.79,147.42,97.52,151.95,396.89,Unlimited,SBD,M,
Boys,99.79,7,Everett Garza,Pasadena Dobie,93.44,102.06,56.7,142.88,301.64,Unlimited,SBD,M,
Boys,99.79,DQ,Gabriel Sanchez,La Porte,99.34,,,,,Unlimited,SBD,M,
Boys,99.79,DQ,Aiden Witt,Pearland Dawson,94.35,,,,,Unlimited,SBD,M,
Boys,109.77,1,Colton Tyer,League City Clear Creek,108.86,183.7,133.81,192.78,510.29,Unlimited,SBD,M,
Boys,109.77,2,Icsom Jones,La Porte,109.32,172.37,136.08,188.24,496.68,Unlimited,SBD,M,
Boys,109.77,3,Julian Alvarez,Pasadena Dobie,105.23,183.7,106.59,190.51,480.81,Unlimited,SBD,M,
Boys,109.77,4,Anthony Salguero,Pasadena Dobie,102.97,156.49,117.93,176.9,451.32,Unlimited,SBD,M,
Boys,109.77,5,Vansh Chittampally,Pearland Dawson,102.51,170.1,83.91,138.35,392.36,Unlimited,SBD,M,
Boys,109.77,6,Robbie Wells,Pearland Dawson,109.77,106.59,,90.72,197.31,Unlimited,SD,M,
Boys,109.77,7,Cameron Addison,Pearland Dawson,109.32,111.13,,68.04,179.17,Unlimited,SD,M,
Boys,109.77,DQ,Carlos Zuniga,Pasadena Dobie,109.32,,,,,Unlimited,SBD,M,
Boys,124.74,1,Landon Guzman,La Porte,123.38,238.14,124.74,206.38,569.26,Unlimited,SBD,M,
Boys,124.74,2,Caiden Oliver,League City Clear Creek,123.83,197.31,106.59,179.17,483.08,Unlimited,SBD,M,
Boys,124.74,3,Ryan Ngo,Pasadena Dobie,112.94,183.7,106.59,185.97,476.27,Unlimited,SBD,M,
Boys,124.74,DQ,Pedro Garza,Pasadena Dobie,117.03,,,,,Unlimited,SBD,M,
Boys,139.71,1,Hayden Hook,League City Clear Creek,131.09,183.7,86.18,181.44,451.32,Unlimited,SBD,M,
Boys,139.71,2,Manuel Tonche,Pearland Dawson,136.98,165.56,83.91,133.81,383.29,Unlimited,SBD,M,
